PIF ProgramInternalForm

Atom Code | SymbolTableCode
3	  | -
0	  | 45
17        | -
1         | 46
8         | -
0         | 45
10        | -
0         | 47
27        | -
23        | -
24        | -
0         | 45
27        | -
5         | -
13        | -
0         | 45
28        | -
1         | 46
14        | -
22        | -
25        | -
0         | 47
27        | -
LexicalError: 2a

SymbolTable
Element | StCode
a	| 45
2	| 46
b	| 47