^E:\PROGRAMARE\SCHOOL\OBJECT ORIENTED PROGRAMMING\EXAM\EXAM\GENERATEDFILES\QRC_EXAM.CPP
E:\PROGRAMARE\SCHOOL\OBJECT ORIENTED PROGRAMMING\EXAM\EXAM\X64\DEBUG\VC140.PDB
E:\PROGRAMARE\SCHOOL\OBJECT ORIENTED PROGRAMMING\EXAM\EXAM\X64\DEBUG\QRC_EXAM.OBJ
^E:\PROGRAMARE\SCHOOL\OBJECT ORIENTED PROGRAMMING\EXAM\EXAM\EXAM.CPP|E:\PROGRAMARE\SCHOOL\OBJECT ORIENTED PROGRAMMING\EXAM\EXAM\MAIN.CPP
E:\PROGRAMARE\SCHOOL\OBJECT ORIENTED PROGRAMMING\EXAM\EXAM\X64\DEBUG\VC140.PDB
E:\PROGRAMARE\SCHOOL\OBJECT ORIENTED PROGRAMMING\EXAM\EXAM\X64\DEBUG\MAIN.OBJ
E:\PROGRAMARE\SCHOOL\OBJECT ORIENTED PROGRAMMING\EXAM\EXAM\X64\DEBUG\EXAM.OBJ
^E:\PROGRAMARE\SCHOOL\OBJECT ORIENTED PROGRAMMING\EXAM\EXAM\EXAM.CPP|E:\PROGRAMARE\SCHOOL\OBJECT ORIENTED PROGRAMMING\EXAM\EXAM\GENERATEDFILES\DEBUG\MOC_EXAM.CPP|E:\PROGRAMARE\SCHOOL\OBJECT ORIENTED PROGRAMMING\EXAM\EXAM\MAIN.CPP
E:\PROGRAMARE\SCHOOL\OBJECT ORIENTED PROGRAMMING\EXAM\EXAM\X64\DEBUG\VC140.PDB
E:\PROGRAMARE\SCHOOL\OBJECT ORIENTED PROGRAMMING\EXAM\EXAM\X64\DEBUG\MAIN.OBJ
E:\PROGRAMARE\SCHOOL\OBJECT ORIENTED PROGRAMMING\EXAM\EXAM\X64\DEBUG\EXAM.OBJ
E:\PROGRAMARE\SCHOOL\OBJECT ORIENTED PROGRAMMING\EXAM\EXAM\X64\DEBUG\MOC_EXAM.OBJ
^E:\PROGRAMARE\SCHOOL\OBJECT ORIENTED PROGRAMMING\EXAM\EXAM\EXAM.CPP|E:\PROGRAMARE\SCHOOL\OBJECT ORIENTED PROGRAMMING\EXAM\EXAM\GENERATEDFILES\DEBUG\MOC_EXAM.CPP|E:\PROGRAMARE\SCHOOL\OBJECT ORIENTED PROGRAMMING\EXAM\EXAM\MAIN.CPP|E:\PROGRAMARE\SCHOOL\OBJECT ORIENTED PROGRAMMING\EXAM\EXAM\REPOSITORY.CPP
E:\PROGRAMARE\SCHOOL\OBJECT ORIENTED PROGRAMMING\EXAM\EXAM\X64\DEBUG\VC140.PDB
E:\PROGRAMARE\SCHOOL\OBJECT ORIENTED PROGRAMMING\EXAM\EXAM\X64\DEBUG\MAIN.OBJ
E:\PROGRAMARE\SCHOOL\OBJECT ORIENTED PROGRAMMING\EXAM\EXAM\X64\DEBUG\EXAM.OBJ
E:\PROGRAMARE\SCHOOL\OBJECT ORIENTED PROGRAMMING\EXAM\EXAM\X64\DEBUG\REPOSITORY.OBJ
E:\PROGRAMARE\SCHOOL\OBJECT ORIENTED PROGRAMMING\EXAM\EXAM\X64\DEBUG\MOC_EXAM.OBJ
^E:\PROGRAMARE\SCHOOL\OBJECT ORIENTED PROGRAMMING\EXAM\EXAM\GENERATEDFILES\DEBUG\MOC_EXAM.CPP
E:\PROGRAMARE\SCHOOL\OBJECT ORIENTED PROGRAMMING\EXAM\EXAM\X64\DEBUG\VC140.PDB
^E:\PROGRAMARE\SCHOOL\OBJECT ORIENTED PROGRAMMING\EXAM\EXAM\MAIN.CPP
E:\PROGRAMARE\SCHOOL\OBJECT ORIENTED PROGRAMMING\EXAM\EXAM\X64\DEBUG\VC140.PDB
E:\PROGRAMARE\SCHOOL\OBJECT ORIENTED PROGRAMMING\EXAM\EXAM\X64\DEBUG\MAIN.OBJ
^E:\PROGRAMARE\SCHOOL\OBJECT ORIENTED PROGRAMMING\EXAM\EXAM\REPOSITORY.CPP
E:\PROGRAMARE\SCHOOL\OBJECT ORIENTED PROGRAMMING\EXAM\EXAM\X64\DEBUG\VC140.PDB
E:\PROGRAMARE\SCHOOL\OBJECT ORIENTED PROGRAMMING\EXAM\EXAM\X64\DEBUG\REPOSITORY.OBJ
^E:\PROGRAMARE\SCHOOL\OBJECT ORIENTED PROGRAMMING\EXAM\EXAM\EXAM.CPP
E:\PROGRAMARE\SCHOOL\OBJECT ORIENTED PROGRAMMING\EXAM\EXAM\X64\DEBUG\VC140.PDB
E:\PROGRAMARE\SCHOOL\OBJECT ORIENTED PROGRAMMING\EXAM\EXAM\X64\DEBUG\EXAM.OBJ
