^E:\PROGRAMARE\SCHOOL\OBJECT ORIENTED PROGRAMMING\EXAM\EXAM\EXAM.QRC
^E:\PROGRAMARE\SCHOOL\OBJECT ORIENTED PROGRAMMING\EXAM\EXAM\EXAM.UI
E:\PROGRAMARE\QT\QT5.6.0\5.6\MSVC2015_64\BIN\UIC.EXE
^E:\PROGRAMARE\SCHOOL\OBJECT ORIENTED PROGRAMMING\EXAM\EXAM\EXAM.H
E:\PROGRAMARE\QT\QT5.6.0\5.6\MSVC2015_64\BIN\MOC.EXE
