^E:\PROGRAMARE\UNIVERSITY-PROJECTS\PROGRAMARE PARALELA SI DISTRIBUITA\LAB1PARALELA\LAB1PARALELA\STDAFX.CPP
/c /ZI /nologo /W3 /WX- /sdl /Od /Oy- /D WIN32 /D _DEBUG /D _CONSOLE /D _UNICODE /D UNICODE /Gm /EHsc /RTC1 /MDd /GS /fp:precise /Zc:wchar_t /Zc:forScope /Zc:inline /Yc"stdafx.h" /Fp"DEBUG\LAB1PARALELA.PCH" /Fo"DEBUG\\" /Fd"DEBUG\VC140.PDB" /Gd /TP /analyze- E:\PROGRAMARE\UNIVERSITY-PROJECTS\PROGRAMARE PARALELA SI DISTRIBUITA\LAB1PARALELA\LAB1PARALELA\STDAFX.CPP
^E:\PROGRAMARE\UNIVERSITY-PROJECTS\PROGRAMARE PARALELA SI DISTRIBUITA\LAB1PARALELA\LAB1PARALELA\LAB1PARALELA.CPP
/c /ZI /nologo /W3 /WX- /sdl /Od /Oy- /D WIN32 /D _DEBUG /D _CONSOLE /D _UNICODE /D UNICODE /Gm /EHsc /RTC1 /MDd /GS /fp:precise /Zc:wchar_t /Zc:forScope /Zc:inline /Yu"stdafx.h" /Fp"DEBUG\LAB1PARALELA.PCH" /Fo"DEBUG\\" /Fd"DEBUG\VC140.PDB" /Gd /TP /analyze- E:\PROGRAMARE\UNIVERSITY-PROJECTS\PROGRAMARE PARALELA SI DISTRIBUITA\LAB1PARALELA\LAB1PARALELA\LAB1PARALELA.CPP
