ID 0
CONST 1
void 2
int 3
float 4
if 5
else 6
while 7
+ 8
- 9
* 10
/ 11
% 12
( 13
) 14
{ 15
} 16
= 17
+= 18
-= 19
++ 20
-- 21
cin 22
cout 23
<< 24
>> 25
, 26
; 27
< 28
> 29
#include 30
<iostream> 31
main() 32
using 33
namespace 34
std 35
endl 36