ExeStack:

[((((((v=0;repeat((fork((print(v);v=v-1));v=v+2)) until(v==3));x=1);y=2);z=3);w=4);print(v*10))]

SymTable:

{}

Out:

[]

FileTable:


----------------------------------------------------------
ExeStack:

[print(v*10), (((((v=0;repeat((fork((print(v);v=v-1));v=v+2)) until(v==3));x=1);y=2);z=3);w=4)]

SymTable:

{}

Out:

[]

FileTable:


----------------------------------------------------------
ExeStack:

[print(v*10), (((((v=0;repeat((fork((print(v);v=v-1));v=v+2)) until(v==3));x=1);y=2);z=3);w=4)]

SymTable:

{}

Out:

[]

FileTable:


----------------------------------------------------------
ExeStack:

[print(v*10), w=4, ((((v=0;repeat((fork((print(v);v=v-1));v=v+2)) until(v==3));x=1);y=2);z=3)]

SymTable:

{}

Out:

[]

FileTable:


----------------------------------------------------------
ExeStack:

[print(v*10), w=4, ((((v=0;repeat((fork((print(v);v=v-1));v=v+2)) until(v==3));x=1);y=2);z=3)]

SymTable:

{}

Out:

[]

FileTable:


----------------------------------------------------------
ExeStack:

[print(v*10), w=4, z=3, (((v=0;repeat((fork((print(v);v=v-1));v=v+2)) until(v==3));x=1);y=2)]

SymTable:

{}

Out:

[]

FileTable:


----------------------------------------------------------
ExeStack:

[print(v*10), w=4, z=3, (((v=0;repeat((fork((print(v);v=v-1));v=v+2)) until(v==3));x=1);y=2)]

SymTable:

{}

Out:

[]

FileTable:


----------------------------------------------------------
ExeStack:

[print(v*10), w=4, z=3, y=2, ((v=0;repeat((fork((print(v);v=v-1));v=v+2)) until(v==3));x=1)]

SymTable:

{}

Out:

[]

FileTable:


----------------------------------------------------------
ExeStack:

[print(v*10), w=4, z=3, y=2, ((v=0;repeat((fork((print(v);v=v-1));v=v+2)) until(v==3));x=1)]

SymTable:

{}

Out:

[]

FileTable:


----------------------------------------------------------
ExeStack:

[print(v*10), w=4, z=3, y=2, x=1, (v=0;repeat((fork((print(v);v=v-1));v=v+2)) until(v==3))]

SymTable:

{}

Out:

[]

FileTable:


----------------------------------------------------------
ExeStack:

[print(v*10), w=4, z=3, y=2, x=1, (v=0;repeat((fork((print(v);v=v-1));v=v+2)) until(v==3))]

SymTable:

{}

Out:

[]

FileTable:


----------------------------------------------------------
ExeStack:

[print(v*10), w=4, z=3, y=2, x=1, repeat((fork((print(v);v=v-1));v=v+2)) until(v==3), v=0]

SymTable:

{}

Out:

[]

FileTable:


----------------------------------------------------------
ExeStack:

[print(v*10), w=4, z=3, y=2, x=1, repeat((fork((print(v);v=v-1));v=v+2)) until(v==3), v=0]

SymTable:

{}

Out:

[]

FileTable:


----------------------------------------------------------
ExeStack:

[print(v*10), w=4, z=3, y=2, x=1, repeat((fork((print(v);v=v-1));v=v+2)) until(v==3)]

SymTable:

{v=0}

Out:

[]

FileTable:


----------------------------------------------------------
ExeStack:

[print(v*10), w=4, z=3, y=2, x=1, repeat((fork((print(v);v=v-1));v=v+2)) until(v==3)]

SymTable:

{v=0}

Out:

[]

FileTable:


----------------------------------------------------------
ExeStack:

[print(v*10), w=4, z=3, y=2, x=1, while(v!=3) (fork((print(v);v=v-1));v=v+2), (fork((print(v);v=v-1));v=v+2)]

SymTable:

{v=0}

Out:

[]

FileTable:


----------------------------------------------------------
ExeStack:

[print(v*10), w=4, z=3, y=2, x=1, while(v!=3) (fork((print(v);v=v-1));v=v+2), (fork((print(v);v=v-1));v=v+2)]

SymTable:

{v=0}

Out:

[]

FileTable:


----------------------------------------------------------
ExeStack:

[print(v*10), w=4, z=3, y=2, x=1, while(v!=3) (fork((print(v);v=v-1));v=v+2), v=v+2, fork((print(v);v=v-1))]

SymTable:

{v=0}

Out:

[]

FileTable:


----------------------------------------------------------
ExeStack:

[print(v*10), w=4, z=3, y=2, x=1, while(v!=3) (fork((print(v);v=v-1));v=v+2), v=v+2, fork((print(v);v=v-1))]

SymTable:

{v=0}

Out:

[]

FileTable:


----------------------------------------------------------
ExeStack:

[print(v*10), w=4, z=3, y=2, x=1, while(v!=3) (fork((print(v);v=v-1));v=v+2), v=v+2, (print(v);v=v-1)]

SymTable:

{v=0}

Out:

[]

FileTable:


----------------------------------------------------------
ExeStack:

[print(v*10), w=4, z=3, y=2, x=1, while(v!=3) (fork((print(v);v=v-1));v=v+2), v=v+2, (print(v);v=v-1)]

SymTable:

{v=0}

Out:

[]

FileTable:


----------------------------------------------------------
ExeStack:

[print(v*10), w=4, z=3, y=2, x=1, while(v!=3) (fork((print(v);v=v-1));v=v+2), v=v+2, (print(v);v=v-1)]

SymTable:

{v=0}

Out:

[]

FileTable:


----------------------------------------------------------
ExeStack:

[print(v*10), w=4, z=3, y=2, x=1, while(v!=3) (fork((print(v);v=v-1));v=v+2), v=v+2, (print(v);v=v-1)]

SymTable:

{v=0}

Out:

[]

FileTable:


----------------------------------------------------------
ExeStack:

[print(v*10), w=4, z=3, y=2, x=1, while(v!=3) (fork((print(v);v=v-1));v=v+2), v=v+2, v=v-1]

SymTable:

{v=0}

Out:

[0]

FileTable:


----------------------------------------------------------
ExeStack:

[print(v*10), w=4, z=3, y=2, x=1, while(v!=3) (fork((print(v);v=v-1));v=v+2), v=v+2, v=v-1]

SymTable:

{v=0}

Out:

[0]

FileTable:


----------------------------------------------------------
ExeStack:

[print(v*10), w=4, z=3, y=2, x=1, while(v!=3) (fork((print(v);v=v-1));v=v+2), v=v+2, v=v-1]

SymTable:

{v=0}

Out:

[0]

FileTable:


----------------------------------------------------------
ExeStack:

[print(v*10), w=4, z=3, y=2, x=1, while(v!=3) (fork((print(v);v=v-1));v=v+2), v=v+2, v=v-1]

SymTable:

{v=0}

Out:

[0]

FileTable:


----------------------------------------------------------
ExeStack:

[print(v*10), w=4, z=3, y=2, x=1, while(v!=3) (fork((print(v);v=v-1));v=v+2)]

SymTable:

{v=1}

Out:

[0]

FileTable:


----------------------------------------------------------
ExeStack:

[print(v*10), w=4, z=3, y=2, x=1, while(v!=3) (fork((print(v);v=v-1));v=v+2)]

SymTable:

{v=1}

Out:

[0]

FileTable:


----------------------------------------------------------
ExeStack:

[print(v*10), w=4, z=3, y=2, x=1, while(v!=3) (fork((print(v);v=v-1));v=v+2)]

SymTable:

{v=1}

Out:

[0]

FileTable:


----------------------------------------------------------
ExeStack:

[print(v*10), w=4, z=3, y=2, x=1, while(v!=3) (fork((print(v);v=v-1));v=v+2)]

SymTable:

{v=1}

Out:

[0]

FileTable:


----------------------------------------------------------
ExeStack:

[print(v*10), w=4, z=3, y=2, x=1, while(v!=3) (fork((print(v);v=v-1));v=v+2), v=v+2, fork((print(v);v=v-1))]

SymTable:

{v=1}

Out:

[0]

FileTable:


----------------------------------------------------------
ExeStack:

[print(v*10), w=4, z=3, y=2, x=1, while(v!=3) (fork((print(v);v=v-1));v=v+2), v=v+2, fork((print(v);v=v-1))]

SymTable:

{v=1}

Out:

[0]

FileTable:


----------------------------------------------------------
ExeStack:

[print(v*10), w=4, z=3, y=2, x=1, while(v!=3) (fork((print(v);v=v-1));v=v+2), v=v+2, fork((print(v);v=v-1))]

SymTable:

{v=1}

Out:

[0]

FileTable:


----------------------------------------------------------
ExeStack:

[print(v*10), w=4, z=3, y=2, x=1, while(v!=3) (fork((print(v);v=v-1));v=v+2), v=v+2, fork((print(v);v=v-1))]

SymTable:

{v=1}

Out:

[0]

FileTable:


----------------------------------------------------------
ExeStack:

[print(v*10), w=4, z=3, y=2, x=1, while(v!=3) (fork((print(v);v=v-1));v=v+2), v=v+2, v=v-1, print(v)]

SymTable:

{v=1}

Out:

[0]

FileTable:


----------------------------------------------------------
ExeStack:

[print(v*10), w=4, z=3, y=2, x=1, while(v!=3) (fork((print(v);v=v-1));v=v+2), v=v+2, v=v-1, print(v)]

SymTable:

{v=1}

Out:

[0]

FileTable:


----------------------------------------------------------
ExeStack:

[print(v*10), w=4, z=3, y=2, x=1, while(v!=3) (fork((print(v);v=v-1));v=v+2), v=v+2, v=v-1, print(v)]

SymTable:

{v=1}

Out:

[0]

FileTable:


----------------------------------------------------------
ExeStack:

[print(v*10), w=4, z=3, y=2, x=1, while(v!=3) (fork((print(v);v=v-1));v=v+2), v=v+2, v=v-1, print(v)]

SymTable:

{v=1}

Out:

[0]

FileTable:


----------------------------------------------------------
ExeStack:

[print(v*10), w=4, z=3, y=2, x=1, while(v!=3) (fork((print(v);v=v-1));v=v+2), v=v+2, v=v-1, print(v)]

SymTable:

{v=1}

Out:

[0]

FileTable:


----------------------------------------------------------
ExeStack:

[print(v*10), w=4, z=3, y=2, x=1, while(v!=3) (fork((print(v);v=v-1));v=v+2), v=v+2, v=v-1, print(v)]

SymTable:

{v=1}

Out:

[0]

FileTable:


----------------------------------------------------------
ExeStack:

[print(v*10), w=4, z=3, y=2, x=1, while(v!=3) (fork((print(v);v=v-1));v=v+2)]

SymTable:

{v=2}

Out:

[0, 1]

FileTable:


----------------------------------------------------------
ExeStack:

[print(v*10), w=4, z=3, y=2, x=1, while(v!=3) (fork((print(v);v=v-1));v=v+2)]

SymTable:

{v=2}

Out:

[0, 1]

FileTable:


----------------------------------------------------------
ExeStack:

[print(v*10), w=4, z=3, y=2, x=1, while(v!=3) (fork((print(v);v=v-1));v=v+2)]

SymTable:

{v=2}

Out:

[0, 1]

FileTable:


----------------------------------------------------------
ExeStack:

[print(v*10), w=4, z=3, y=2, x=1, while(v!=3) (fork((print(v);v=v-1));v=v+2)]

SymTable:

{v=2}

Out:

[0, 1]

FileTable:


----------------------------------------------------------
ExeStack:

[print(v*10), w=4, z=3, y=2, x=1, while(v!=3) (fork((print(v);v=v-1));v=v+2)]

SymTable:

{v=2}

Out:

[0, 1]

FileTable:


----------------------------------------------------------
ExeStack:

[print(v*10), w=4, z=3, y=2, x=1, while(v!=3) (fork((print(v);v=v-1));v=v+2)]

SymTable:

{v=2}

Out:

[0, 1]

FileTable:


----------------------------------------------------------
ExeStack:

[print(v*10), w=4, z=3, y=2, x=1, while(v!=3) (fork((print(v);v=v-1));v=v+2), v=v+2, (print(v);v=v-1)]

SymTable:

{v=2}

Out:

[0, 1]

FileTable:


----------------------------------------------------------
ExeStack:

[print(v*10), w=4, z=3, y=2, x=1, while(v!=3) (fork((print(v);v=v-1));v=v+2), v=v+2, (print(v);v=v-1)]

SymTable:

{v=2}

Out:

[0, 1]

FileTable:


----------------------------------------------------------
ExeStack:

[print(v*10), w=4, z=3, y=2, x=1, while(v!=3) (fork((print(v);v=v-1));v=v+2), v=v+2, (print(v);v=v-1)]

SymTable:

{v=2}

Out:

[0, 1]

FileTable:


----------------------------------------------------------
ExeStack:

[print(v*10), w=4, z=3, y=2, x=1, while(v!=3) (fork((print(v);v=v-1));v=v+2), v=v+2, (print(v);v=v-1)]

SymTable:

{v=2}

Out:

[0, 1]

FileTable:


----------------------------------------------------------
ExeStack:

[print(v*10), w=4, z=3, y=2, x=1, while(v!=3) (fork((print(v);v=v-1));v=v+2), v=v+2, (print(v);v=v-1)]

SymTable:

{v=2}

Out:

[0, 1]

FileTable:


----------------------------------------------------------
ExeStack:

[print(v*10), w=4, z=3, y=2, x=1, while(v!=3) (fork((print(v);v=v-1));v=v+2), v=v+2, (print(v);v=v-1)]

SymTable:

{v=2}

Out:

[0, 1]

FileTable:


----------------------------------------------------------
ExeStack:

[print(v*10), w=4, z=3, y=2, x=1, while(v!=3) (fork((print(v);v=v-1));v=v+2), v=v+2, (print(v);v=v-1)]

SymTable:

{v=2}

Out:

[0, 1]

FileTable:


----------------------------------------------------------
ExeStack:

[print(v*10), w=4, z=3, y=2, x=1, while(v!=3) (fork((print(v);v=v-1));v=v+2), v=v+2, (print(v);v=v-1)]

SymTable:

{v=2}

Out:

[0, 1]

FileTable:


----------------------------------------------------------
ExeStack:

[print(v*10), w=4, z=3, y=2, x=1, while(v!=3) (fork((print(v);v=v-1));v=v+2)]

SymTable:

{v=3}

Out:

[0, 1, 2]

FileTable:


----------------------------------------------------------
ExeStack:

[print(v*10), w=4, z=3, y=2, x=1, while(v!=3) (fork((print(v);v=v-1));v=v+2)]

SymTable:

{v=3}

Out:

[0, 1, 2]

FileTable:


----------------------------------------------------------
ExeStack:

[print(v*10), w=4, z=3, y=2, x=1, while(v!=3) (fork((print(v);v=v-1));v=v+2)]

SymTable:

{v=3}

Out:

[0, 1, 2]

FileTable:


----------------------------------------------------------
ExeStack:

[print(v*10), w=4, z=3, y=2, x=1, while(v!=3) (fork((print(v);v=v-1));v=v+2)]

SymTable:

{v=3}

Out:

[0, 1, 2]

FileTable:


----------------------------------------------------------
ExeStack:

[print(v*10), w=4, z=3, y=2, x=1, while(v!=3) (fork((print(v);v=v-1));v=v+2)]

SymTable:

{v=3}

Out:

[0, 1, 2]

FileTable:


----------------------------------------------------------
ExeStack:

[print(v*10), w=4, z=3, y=2, x=1, while(v!=3) (fork((print(v);v=v-1));v=v+2)]

SymTable:

{v=3}

Out:

[0, 1, 2]

FileTable:


----------------------------------------------------------
ExeStack:

[print(v*10), w=4, z=3, y=2, x=1, while(v!=3) (fork((print(v);v=v-1));v=v+2)]

SymTable:

{v=3}

Out:

[0, 1, 2]

FileTable:


----------------------------------------------------------
ExeStack:

[print(v*10), w=4, z=3, y=2, x=1, while(v!=3) (fork((print(v);v=v-1));v=v+2)]

SymTable:

{v=3}

Out:

[0, 1, 2]

FileTable:


----------------------------------------------------------
ExeStack:

[print(v*10), w=4]

SymTable:

{v=3, x=1, y=2, z=3}

Out:

[0, 1, 2]

FileTable:


----------------------------------------------------------
ExeStack:

[print(v*10), w=4]

SymTable:

{v=3, x=1, y=2, z=3}

Out:

[0, 1, 2]

FileTable:


----------------------------------------------------------
ExeStack:

[print(v*10), w=4]

SymTable:

{v=3, x=1, y=2, z=3}

Out:

[0, 1, 2]

FileTable:


----------------------------------------------------------
ExeStack:

[print(v*10), w=4]

SymTable:

{v=3, x=1, y=2, z=3}

Out:

[0, 1, 2]

FileTable:


----------------------------------------------------------
ExeStack:

[print(v*10), w=4]

SymTable:

{v=3, x=1, y=2, z=3}

Out:

[0, 1, 2]

FileTable:


----------------------------------------------------------
ExeStack:

[print(v*10), w=4]

SymTable:

{v=3, x=1, y=2, z=3}

Out:

[0, 1, 2]

FileTable:


----------------------------------------------------------
ExeStack:

[print(v*10), w=4]

SymTable:

{v=3, x=1, y=2, z=3}

Out:

[0, 1, 2]

FileTable:


----------------------------------------------------------
ExeStack:

[print(v*10), w=4]

SymTable:

{v=3, x=1, y=2, z=3}

Out:

[0, 1, 2]

FileTable:


----------------------------------------------------------
ExeStack:

[]

SymTable:

{v=3, w=4, x=1, y=2, z=3}

Out:

[0, 1, 2, 30]

FileTable:


----------------------------------------------------------
ExeStack:

[]

SymTable:

{v=3, w=4, x=1, y=2, z=3}

Out:

[0, 1, 2, 30]

FileTable:


----------------------------------------------------------
ExeStack:

[]

SymTable:

{v=3, w=4, x=1, y=2, z=3}

Out:

[0, 1, 2, 30]

FileTable:


----------------------------------------------------------
ExeStack:

[]

SymTable:

{v=3, w=4, x=1, y=2, z=3}

Out:

[0, 1, 2, 30]

FileTable:


----------------------------------------------------------
ExeStack:

[((((((v=0;repeat(((print(v);v=v*1);v=v+1)) until(v==3));x=1);y=2);z=3);w=4);print(v*10))]

SymTable:

{}

Out:

[]

FileTable:


----------------------------------------------------------
ExeStack:

[print(v*10), (((((v=0;repeat(((print(v);v=v*1);v=v+1)) until(v==3));x=1);y=2);z=3);w=4)]

SymTable:

{}

Out:

[]

FileTable:


----------------------------------------------------------
ExeStack:

[print(v*10), (((((v=0;repeat(((print(v);v=v*1);v=v+1)) until(v==3));x=1);y=2);z=3);w=4)]

SymTable:

{}

Out:

[]

FileTable:


----------------------------------------------------------
ExeStack:

[print(v*10), w=4, ((((v=0;repeat(((print(v);v=v*1);v=v+1)) until(v==3));x=1);y=2);z=3)]

SymTable:

{}

Out:

[]

FileTable:


----------------------------------------------------------
ExeStack:

[print(v*10), w=4, ((((v=0;repeat(((print(v);v=v*1);v=v+1)) until(v==3));x=1);y=2);z=3)]

SymTable:

{}

Out:

[]

FileTable:


----------------------------------------------------------
ExeStack:

[print(v*10), w=4, z=3, (((v=0;repeat(((print(v);v=v*1);v=v+1)) until(v==3));x=1);y=2)]

SymTable:

{}

Out:

[]

FileTable:


----------------------------------------------------------
ExeStack:

[print(v*10), w=4, z=3, (((v=0;repeat(((print(v);v=v*1);v=v+1)) until(v==3));x=1);y=2)]

SymTable:

{}

Out:

[]

FileTable:


----------------------------------------------------------
ExeStack:

[print(v*10), w=4, z=3, y=2, ((v=0;repeat(((print(v);v=v*1);v=v+1)) until(v==3));x=1)]

SymTable:

{}

Out:

[]

FileTable:


----------------------------------------------------------
ExeStack:

[print(v*10), w=4, z=3, y=2, ((v=0;repeat(((print(v);v=v*1);v=v+1)) until(v==3));x=1)]

SymTable:

{}

Out:

[]

FileTable:


----------------------------------------------------------
ExeStack:

[print(v*10), w=4, z=3, y=2, x=1, (v=0;repeat(((print(v);v=v*1);v=v+1)) until(v==3))]

SymTable:

{}

Out:

[]

FileTable:


----------------------------------------------------------
ExeStack:

[print(v*10), w=4, z=3, y=2, x=1, (v=0;repeat(((print(v);v=v*1);v=v+1)) until(v==3))]

SymTable:

{}

Out:

[]

FileTable:


----------------------------------------------------------
ExeStack:

[print(v*10), w=4, z=3, y=2, x=1, repeat(((print(v);v=v*1);v=v+1)) until(v==3), v=0]

SymTable:

{}

Out:

[]

FileTable:


----------------------------------------------------------
ExeStack:

[print(v*10), w=4, z=3, y=2, x=1, repeat(((print(v);v=v*1);v=v+1)) until(v==3), v=0]

SymTable:

{}

Out:

[]

FileTable:


----------------------------------------------------------
ExeStack:

[print(v*10), w=4, z=3, y=2, x=1, repeat(((print(v);v=v*1);v=v+1)) until(v==3)]

SymTable:

{v=0}

Out:

[]

FileTable:


----------------------------------------------------------
ExeStack:

[print(v*10), w=4, z=3, y=2, x=1, repeat(((print(v);v=v*1);v=v+1)) until(v==3)]

SymTable:

{v=0}

Out:

[]

FileTable:


----------------------------------------------------------
ExeStack:

[print(v*10), w=4, z=3, y=2, x=1, while(v!=3) ((print(v);v=v*1);v=v+1), ((print(v);v=v*1);v=v+1)]

SymTable:

{v=0}

Out:

[]

FileTable:


----------------------------------------------------------
ExeStack:

[print(v*10), w=4, z=3, y=2, x=1, while(v!=3) ((print(v);v=v*1);v=v+1), ((print(v);v=v*1);v=v+1)]

SymTable:

{v=0}

Out:

[]

FileTable:


----------------------------------------------------------
ExeStack:

[print(v*10), w=4, z=3, y=2, x=1, while(v!=3) ((print(v);v=v*1);v=v+1), v=v+1, (print(v);v=v*1)]

SymTable:

{v=0}

Out:

[]

FileTable:


----------------------------------------------------------
ExeStack:

[print(v*10), w=4, z=3, y=2, x=1, while(v!=3) ((print(v);v=v*1);v=v+1), v=v+1, (print(v);v=v*1)]

SymTable:

{v=0}

Out:

[]

FileTable:


----------------------------------------------------------
ExeStack:

[print(v*10), w=4, z=3, y=2, x=1, while(v!=3) ((print(v);v=v*1);v=v+1), v=v+1, v=v*1, print(v)]

SymTable:

{v=0}

Out:

[]

FileTable:


----------------------------------------------------------
ExeStack:

[print(v*10), w=4, z=3, y=2, x=1, while(v!=3) ((print(v);v=v*1);v=v+1), v=v+1, v=v*1, print(v)]

SymTable:

{v=0}

Out:

[]

FileTable:


----------------------------------------------------------
ExeStack:

[print(v*10), w=4, z=3, y=2, x=1, while(v!=3) ((print(v);v=v*1);v=v+1), v=v+1, v=v*1]

SymTable:

{v=0}

Out:

[0]

FileTable:


----------------------------------------------------------
ExeStack:

[print(v*10), w=4, z=3, y=2, x=1, while(v!=3) ((print(v);v=v*1);v=v+1), v=v+1, v=v*1]

SymTable:

{v=0}

Out:

[0]

FileTable:


----------------------------------------------------------
ExeStack:

[print(v*10), w=4, z=3, y=2, x=1, while(v!=3) ((print(v);v=v*1);v=v+1), v=v+1]

SymTable:

{v=0}

Out:

[0]

FileTable:


----------------------------------------------------------
ExeStack:

[print(v*10), w=4, z=3, y=2, x=1, while(v!=3) ((print(v);v=v*1);v=v+1), v=v+1]

SymTable:

{v=0}

Out:

[0]

FileTable:


----------------------------------------------------------
ExeStack:

[print(v*10), w=4, z=3, y=2, x=1, while(v!=3) ((print(v);v=v*1);v=v+1)]

SymTable:

{v=1}

Out:

[0]

FileTable:


----------------------------------------------------------
ExeStack:

[print(v*10), w=4, z=3, y=2, x=1, while(v!=3) ((print(v);v=v*1);v=v+1)]

SymTable:

{v=1}

Out:

[0]

FileTable:


----------------------------------------------------------
ExeStack:

[print(v*10), w=4, z=3, y=2, x=1, while(v!=3) ((print(v);v=v*1);v=v+1), ((print(v);v=v*1);v=v+1)]

SymTable:

{v=1}

Out:

[0]

FileTable:


----------------------------------------------------------
ExeStack:

[print(v*10), w=4, z=3, y=2, x=1, while(v!=3) ((print(v);v=v*1);v=v+1), ((print(v);v=v*1);v=v+1)]

SymTable:

{v=1}

Out:

[0]

FileTable:


----------------------------------------------------------
ExeStack:

[print(v*10), w=4, z=3, y=2, x=1, while(v!=3) ((print(v);v=v*1);v=v+1), v=v+1, (print(v);v=v*1)]

SymTable:

{v=1}

Out:

[0]

FileTable:


----------------------------------------------------------
ExeStack:

[print(v*10), w=4, z=3, y=2, x=1, while(v!=3) ((print(v);v=v*1);v=v+1), v=v+1, (print(v);v=v*1)]

SymTable:

{v=1}

Out:

[0]

FileTable:


----------------------------------------------------------
ExeStack:

[print(v*10), w=4, z=3, y=2, x=1, while(v!=3) ((print(v);v=v*1);v=v+1), v=v+1, v=v*1, print(v)]

SymTable:

{v=1}

Out:

[0]

FileTable:


----------------------------------------------------------
ExeStack:

[print(v*10), w=4, z=3, y=2, x=1, while(v!=3) ((print(v);v=v*1);v=v+1), v=v+1, v=v*1, print(v)]

SymTable:

{v=1}

Out:

[0]

FileTable:


----------------------------------------------------------
ExeStack:

[print(v*10), w=4, z=3, y=2, x=1, while(v!=3) ((print(v);v=v*1);v=v+1), v=v+1, v=v*1]

SymTable:

{v=1}

Out:

[0, 1]

FileTable:


----------------------------------------------------------
ExeStack:

[print(v*10), w=4, z=3, y=2, x=1, while(v!=3) ((print(v);v=v*1);v=v+1), v=v+1, v=v*1]

SymTable:

{v=1}

Out:

[0, 1]

FileTable:


----------------------------------------------------------
ExeStack:

[print(v*10), w=4, z=3, y=2, x=1, while(v!=3) ((print(v);v=v*1);v=v+1), v=v+1]

SymTable:

{v=1}

Out:

[0, 1]

FileTable:


----------------------------------------------------------
ExeStack:

[print(v*10), w=4, z=3, y=2, x=1, while(v!=3) ((print(v);v=v*1);v=v+1), v=v+1]

SymTable:

{v=1}

Out:

[0, 1]

FileTable:


----------------------------------------------------------
ExeStack:

[print(v*10), w=4, z=3, y=2, x=1, while(v!=3) ((print(v);v=v*1);v=v+1)]

SymTable:

{v=2}

Out:

[0, 1]

FileTable:


----------------------------------------------------------
ExeStack:

[print(v*10), w=4, z=3, y=2, x=1, while(v!=3) ((print(v);v=v*1);v=v+1)]

SymTable:

{v=2}

Out:

[0, 1]

FileTable:


----------------------------------------------------------
ExeStack:

[print(v*10), w=4, z=3, y=2, x=1, while(v!=3) ((print(v);v=v*1);v=v+1), ((print(v);v=v*1);v=v+1)]

SymTable:

{v=2}

Out:

[0, 1]

FileTable:


----------------------------------------------------------
ExeStack:

[print(v*10), w=4, z=3, y=2, x=1, while(v!=3) ((print(v);v=v*1);v=v+1), ((print(v);v=v*1);v=v+1)]

SymTable:

{v=2}

Out:

[0, 1]

FileTable:


----------------------------------------------------------
ExeStack:

[print(v*10), w=4, z=3, y=2, x=1, while(v!=3) ((print(v);v=v*1);v=v+1), v=v+1, (print(v);v=v*1)]

SymTable:

{v=2}

Out:

[0, 1]

FileTable:


----------------------------------------------------------
ExeStack:

[print(v*10), w=4, z=3, y=2, x=1, while(v!=3) ((print(v);v=v*1);v=v+1), v=v+1, (print(v);v=v*1)]

SymTable:

{v=2}

Out:

[0, 1]

FileTable:


----------------------------------------------------------
ExeStack:

[print(v*10), w=4, z=3, y=2, x=1, while(v!=3) ((print(v);v=v*1);v=v+1), v=v+1, v=v*1, print(v)]

SymTable:

{v=2}

Out:

[0, 1]

FileTable:


----------------------------------------------------------
ExeStack:

[print(v*10), w=4, z=3, y=2, x=1, while(v!=3) ((print(v);v=v*1);v=v+1), v=v+1, v=v*1, print(v)]

SymTable:

{v=2}

Out:

[0, 1]

FileTable:


----------------------------------------------------------
ExeStack:

[print(v*10), w=4, z=3, y=2, x=1, while(v!=3) ((print(v);v=v*1);v=v+1), v=v+1, v=v*1]

SymTable:

{v=2}

Out:

[0, 1, 2]

FileTable:


----------------------------------------------------------
ExeStack:

[print(v*10), w=4, z=3, y=2, x=1, while(v!=3) ((print(v);v=v*1);v=v+1), v=v+1, v=v*1]

SymTable:

{v=2}

Out:

[0, 1, 2]

FileTable:


----------------------------------------------------------
ExeStack:

[print(v*10), w=4, z=3, y=2, x=1, while(v!=3) ((print(v);v=v*1);v=v+1), v=v+1]

SymTable:

{v=2}

Out:

[0, 1, 2]

FileTable:


----------------------------------------------------------
ExeStack:

[print(v*10), w=4, z=3, y=2, x=1, while(v!=3) ((print(v);v=v*1);v=v+1), v=v+1]

SymTable:

{v=2}

Out:

[0, 1, 2]

FileTable:


----------------------------------------------------------
ExeStack:

[print(v*10), w=4, z=3, y=2, x=1, while(v!=3) ((print(v);v=v*1);v=v+1)]

SymTable:

{v=3}

Out:

[0, 1, 2]

FileTable:


----------------------------------------------------------
ExeStack:

[print(v*10), w=4, z=3, y=2, x=1, while(v!=3) ((print(v);v=v*1);v=v+1)]

SymTable:

{v=3}

Out:

[0, 1, 2]

FileTable:


----------------------------------------------------------
ExeStack:

[print(v*10), w=4, z=3, y=2, x=1]

SymTable:

{v=3}

Out:

[0, 1, 2]

FileTable:


----------------------------------------------------------
ExeStack:

[print(v*10), w=4, z=3, y=2, x=1]

SymTable:

{v=3}

Out:

[0, 1, 2]

FileTable:


----------------------------------------------------------
ExeStack:

[print(v*10), w=4, z=3, y=2]

SymTable:

{v=3, x=1}

Out:

[0, 1, 2]

FileTable:


----------------------------------------------------------
ExeStack:

[print(v*10), w=4, z=3, y=2]

SymTable:

{v=3, x=1}

Out:

[0, 1, 2]

FileTable:


----------------------------------------------------------
ExeStack:

[print(v*10), w=4, z=3]

SymTable:

{v=3, x=1, y=2}

Out:

[0, 1, 2]

FileTable:


----------------------------------------------------------
ExeStack:

[print(v*10), w=4, z=3]

SymTable:

{v=3, x=1, y=2}

Out:

[0, 1, 2]

FileTable:


----------------------------------------------------------
ExeStack:

[print(v*10), w=4]

SymTable:

{v=3, x=1, y=2, z=3}

Out:

[0, 1, 2]

FileTable:


----------------------------------------------------------
ExeStack:

[print(v*10), w=4]

SymTable:

{v=3, x=1, y=2, z=3}

Out:

[0, 1, 2]

FileTable:


----------------------------------------------------------
ExeStack:

[print(v*10)]

SymTable:

{v=3, w=4, x=1, y=2, z=3}

Out:

[0, 1, 2]

FileTable:


----------------------------------------------------------
ExeStack:

[print(v*10)]

SymTable:

{v=3, w=4, x=1, y=2, z=3}

Out:

[0, 1, 2]

FileTable:


----------------------------------------------------------
ExeStack:

[]

SymTable:

{v=3, w=4, x=1, y=2, z=3}

Out:

[0, 1, 2, 30]

FileTable:


----------------------------------------------------------
ExeStack:

[((((((v=0;repeat((print(v);v=v+1)) until(v==3));x=1);y=2);z=3);w=4);print(v*10))]

SymTable:

{}

Out:

[]

FileTable:


----------------------------------------------------------
ExeStack:

[print(v*10), (((((v=0;repeat((print(v);v=v+1)) until(v==3));x=1);y=2);z=3);w=4)]

SymTable:

{}

Out:

[]

FileTable:


----------------------------------------------------------
ExeStack:

[print(v*10), (((((v=0;repeat((print(v);v=v+1)) until(v==3));x=1);y=2);z=3);w=4)]

SymTable:

{}

Out:

[]

FileTable:


----------------------------------------------------------
ExeStack:

[print(v*10), w=4, ((((v=0;repeat((print(v);v=v+1)) until(v==3));x=1);y=2);z=3)]

SymTable:

{}

Out:

[]

FileTable:


----------------------------------------------------------
ExeStack:

[print(v*10), w=4, ((((v=0;repeat((print(v);v=v+1)) until(v==3));x=1);y=2);z=3)]

SymTable:

{}

Out:

[]

FileTable:


----------------------------------------------------------
ExeStack:

[print(v*10), w=4, z=3, (((v=0;repeat((print(v);v=v+1)) until(v==3));x=1);y=2)]

SymTable:

{}

Out:

[]

FileTable:


----------------------------------------------------------
ExeStack:

[print(v*10), w=4, z=3, (((v=0;repeat((print(v);v=v+1)) until(v==3));x=1);y=2)]

SymTable:

{}

Out:

[]

FileTable:


----------------------------------------------------------
ExeStack:

[print(v*10), w=4, z=3, y=2, ((v=0;repeat((print(v);v=v+1)) until(v==3));x=1)]

SymTable:

{}

Out:

[]

FileTable:


----------------------------------------------------------
ExeStack:

[print(v*10), w=4, z=3, y=2, ((v=0;repeat((print(v);v=v+1)) until(v==3));x=1)]

SymTable:

{}

Out:

[]

FileTable:


----------------------------------------------------------
ExeStack:

[print(v*10), w=4, z=3, y=2, x=1, (v=0;repeat((print(v);v=v+1)) until(v==3))]

SymTable:

{}

Out:

[]

FileTable:


----------------------------------------------------------
ExeStack:

[print(v*10), w=4, z=3, y=2, x=1, (v=0;repeat((print(v);v=v+1)) until(v==3))]

SymTable:

{}

Out:

[]

FileTable:


----------------------------------------------------------
ExeStack:

[print(v*10), w=4, z=3, y=2, x=1, repeat((print(v);v=v+1)) until(v==3), v=0]

SymTable:

{}

Out:

[]

FileTable:


----------------------------------------------------------
ExeStack:

[print(v*10), w=4, z=3, y=2, x=1, repeat((print(v);v=v+1)) until(v==3), v=0]

SymTable:

{}

Out:

[]

FileTable:


----------------------------------------------------------
ExeStack:

[print(v*10), w=4, z=3, y=2, x=1, repeat((print(v);v=v+1)) until(v==3)]

SymTable:

{v=0}

Out:

[]

FileTable:


----------------------------------------------------------
ExeStack:

[print(v*10), w=4, z=3, y=2, x=1, repeat((print(v);v=v+1)) until(v==3)]

SymTable:

{v=0}

Out:

[]

FileTable:


----------------------------------------------------------
ExeStack:

[print(v*10), w=4, z=3, y=2, x=1, while(v!=3) (print(v);v=v+1), (print(v);v=v+1)]

SymTable:

{v=0}

Out:

[]

FileTable:


----------------------------------------------------------
ExeStack:

[print(v*10), w=4, z=3, y=2, x=1, while(v!=3) (print(v);v=v+1), (print(v);v=v+1)]

SymTable:

{v=0}

Out:

[]

FileTable:


----------------------------------------------------------
ExeStack:

[print(v*10), w=4, z=3, y=2, x=1, while(v!=3) (print(v);v=v+1), v=v+1, print(v)]

SymTable:

{v=0}

Out:

[]

FileTable:


----------------------------------------------------------
ExeStack:

[print(v*10), w=4, z=3, y=2, x=1, while(v!=3) (print(v);v=v+1), v=v+1, print(v)]

SymTable:

{v=0}

Out:

[]

FileTable:


----------------------------------------------------------
ExeStack:

[print(v*10), w=4, z=3, y=2, x=1, while(v!=3) (print(v);v=v+1), v=v+1]

SymTable:

{v=0}

Out:

[0]

FileTable:


----------------------------------------------------------
ExeStack:

[print(v*10), w=4, z=3, y=2, x=1, while(v!=3) (print(v);v=v+1), v=v+1]

SymTable:

{v=0}

Out:

[0]

FileTable:


----------------------------------------------------------
ExeStack:

[print(v*10), w=4, z=3, y=2, x=1, while(v!=3) (print(v);v=v+1)]

SymTable:

{v=1}

Out:

[0]

FileTable:


----------------------------------------------------------
ExeStack:

[print(v*10), w=4, z=3, y=2, x=1, while(v!=3) (print(v);v=v+1)]

SymTable:

{v=1}

Out:

[0]

FileTable:


----------------------------------------------------------
ExeStack:

[print(v*10), w=4, z=3, y=2, x=1, while(v!=3) (print(v);v=v+1), (print(v);v=v+1)]

SymTable:

{v=1}

Out:

[0]

FileTable:


----------------------------------------------------------
ExeStack:

[print(v*10), w=4, z=3, y=2, x=1, while(v!=3) (print(v);v=v+1), (print(v);v=v+1)]

SymTable:

{v=1}

Out:

[0]

FileTable:


----------------------------------------------------------
ExeStack:

[print(v*10), w=4, z=3, y=2, x=1, while(v!=3) (print(v);v=v+1), v=v+1, print(v)]

SymTable:

{v=1}

Out:

[0]

FileTable:


----------------------------------------------------------
ExeStack:

[print(v*10), w=4, z=3, y=2, x=1, while(v!=3) (print(v);v=v+1), v=v+1, print(v)]

SymTable:

{v=1}

Out:

[0]

FileTable:


----------------------------------------------------------
ExeStack:

[print(v*10), w=4, z=3, y=2, x=1, while(v!=3) (print(v);v=v+1), v=v+1]

SymTable:

{v=1}

Out:

[0, 1]

FileTable:


----------------------------------------------------------
ExeStack:

[print(v*10), w=4, z=3, y=2, x=1, while(v!=3) (print(v);v=v+1), v=v+1]

SymTable:

{v=1}

Out:

[0, 1]

FileTable:


----------------------------------------------------------
ExeStack:

[print(v*10), w=4, z=3, y=2, x=1, while(v!=3) (print(v);v=v+1)]

SymTable:

{v=2}

Out:

[0, 1]

FileTable:


----------------------------------------------------------
ExeStack:

[print(v*10), w=4, z=3, y=2, x=1, while(v!=3) (print(v);v=v+1)]

SymTable:

{v=2}

Out:

[0, 1]

FileTable:


----------------------------------------------------------
ExeStack:

[print(v*10), w=4, z=3, y=2, x=1, while(v!=3) (print(v);v=v+1), (print(v);v=v+1)]

SymTable:

{v=2}

Out:

[0, 1]

FileTable:


----------------------------------------------------------
ExeStack:

[print(v*10), w=4, z=3, y=2, x=1, while(v!=3) (print(v);v=v+1), (print(v);v=v+1)]

SymTable:

{v=2}

Out:

[0, 1]

FileTable:


----------------------------------------------------------
ExeStack:

[print(v*10), w=4, z=3, y=2, x=1, while(v!=3) (print(v);v=v+1), v=v+1, print(v)]

SymTable:

{v=2}

Out:

[0, 1]

FileTable:


----------------------------------------------------------
ExeStack:

[print(v*10), w=4, z=3, y=2, x=1, while(v!=3) (print(v);v=v+1), v=v+1, print(v)]

SymTable:

{v=2}

Out:

[0, 1]

FileTable:


----------------------------------------------------------
ExeStack:

[print(v*10), w=4, z=3, y=2, x=1, while(v!=3) (print(v);v=v+1), v=v+1]

SymTable:

{v=2}

Out:

[0, 1, 2]

FileTable:


----------------------------------------------------------
ExeStack:

[print(v*10), w=4, z=3, y=2, x=1, while(v!=3) (print(v);v=v+1), v=v+1]

SymTable:

{v=2}

Out:

[0, 1, 2]

FileTable:


----------------------------------------------------------
ExeStack:

[print(v*10), w=4, z=3, y=2, x=1, while(v!=3) (print(v);v=v+1)]

SymTable:

{v=3}

Out:

[0, 1, 2]

FileTable:


----------------------------------------------------------
ExeStack:

[print(v*10), w=4, z=3, y=2, x=1, while(v!=3) (print(v);v=v+1)]

SymTable:

{v=3}

Out:

[0, 1, 2]

FileTable:


----------------------------------------------------------
ExeStack:

[print(v*10), w=4, z=3, y=2, x=1]

SymTable:

{v=3}

Out:

[0, 1, 2]

FileTable:


----------------------------------------------------------
ExeStack:

[print(v*10), w=4, z=3, y=2, x=1]

SymTable:

{v=3}

Out:

[0, 1, 2]

FileTable:


----------------------------------------------------------
ExeStack:

[print(v*10), w=4, z=3, y=2]

SymTable:

{v=3, x=1}

Out:

[0, 1, 2]

FileTable:


----------------------------------------------------------
ExeStack:

[print(v*10), w=4, z=3, y=2]

SymTable:

{v=3, x=1}

Out:

[0, 1, 2]

FileTable:


----------------------------------------------------------
ExeStack:

[print(v*10), w=4, z=3]

SymTable:

{v=3, x=1, y=2}

Out:

[0, 1, 2]

FileTable:


----------------------------------------------------------
ExeStack:

[print(v*10), w=4, z=3]

SymTable:

{v=3, x=1, y=2}

Out:

[0, 1, 2]

FileTable:


----------------------------------------------------------
ExeStack:

[print(v*10), w=4]

SymTable:

{v=3, x=1, y=2, z=3}

Out:

[0, 1, 2]

FileTable:


----------------------------------------------------------
ExeStack:

[print(v*10), w=4]

SymTable:

{v=3, x=1, y=2, z=3}

Out:

[0, 1, 2]

FileTable:


----------------------------------------------------------
ExeStack:

[print(v*10)]

SymTable:

{v=3, w=4, x=1, y=2, z=3}

Out:

[0, 1, 2]

FileTable:


----------------------------------------------------------
ExeStack:

[print(v*10)]

SymTable:

{v=3, w=4, x=1, y=2, z=3}

Out:

[0, 1, 2]

FileTable:


----------------------------------------------------------
ExeStack:

[]

SymTable:

{v=3, w=4, x=1, y=2, z=3}

Out:

[0, 1, 2, 30]

FileTable:


----------------------------------------------------------
ExeStack:

[((((((v=0;repeat((print(v);v=v+1)) until(v==3));x=1);y=2);z=3);w=4);print(v*10))]

SymTable:

{}

Out:

[]

FileTable:


----------------------------------------------------------
ExeStack:

[print(v*10), (((((v=0;repeat((print(v);v=v+1)) until(v==3));x=1);y=2);z=3);w=4)]

SymTable:

{}

Out:

[]

FileTable:


----------------------------------------------------------
ExeStack:

[print(v*10), (((((v=0;repeat((print(v);v=v+1)) until(v==3));x=1);y=2);z=3);w=4)]

SymTable:

{}

Out:

[]

FileTable:


----------------------------------------------------------
ExeStack:

[print(v*10), w=4, ((((v=0;repeat((print(v);v=v+1)) until(v==3));x=1);y=2);z=3)]

SymTable:

{}

Out:

[]

FileTable:


----------------------------------------------------------
ExeStack:

[print(v*10), w=4, ((((v=0;repeat((print(v);v=v+1)) until(v==3));x=1);y=2);z=3)]

SymTable:

{}

Out:

[]

FileTable:


----------------------------------------------------------
ExeStack:

[print(v*10), w=4, z=3, (((v=0;repeat((print(v);v=v+1)) until(v==3));x=1);y=2)]

SymTable:

{}

Out:

[]

FileTable:


----------------------------------------------------------
ExeStack:

[((((((v=0;repeat((print(v);v=v+1)) until(v==3));x=1);y=2);z=3);w=4);print(v*10))]

SymTable:

{}

Out:

[]

FileTable:


----------------------------------------------------------
ExeStack:

[print(v*10), (((((v=0;repeat((print(v);v=v+1)) until(v==3));x=1);y=2);z=3);w=4)]

SymTable:

{}

Out:

[]

FileTable:


----------------------------------------------------------
ExeStack:

[print(v*10), (((((v=0;repeat((print(v);v=v+1)) until(v==3));x=1);y=2);z=3);w=4)]

SymTable:

{}

Out:

[]

FileTable:


----------------------------------------------------------
ExeStack:

[print(v*10), w=4, ((((v=0;repeat((print(v);v=v+1)) until(v==3));x=1);y=2);z=3)]

SymTable:

{}

Out:

[]

FileTable:


----------------------------------------------------------
ExeStack:

[print(v*10), w=4, ((((v=0;repeat((print(v);v=v+1)) until(v==3));x=1);y=2);z=3)]

SymTable:

{}

Out:

[]

FileTable:


----------------------------------------------------------
ExeStack:

[print(v*10), w=4, z=3, (((v=0;repeat((print(v);v=v+1)) until(v==3));x=1);y=2)]

SymTable:

{}

Out:

[]

FileTable:


----------------------------------------------------------
ExeStack:

[print(v*10), w=4, z=3, (((v=0;repeat((print(v);v=v+1)) until(v==3));x=1);y=2)]

SymTable:

{}

Out:

[]

FileTable:


----------------------------------------------------------
ExeStack:

[print(v*10), w=4, z=3, y=2, ((v=0;repeat((print(v);v=v+1)) until(v==3));x=1)]

SymTable:

{}

Out:

[]

FileTable:


----------------------------------------------------------
ExeStack:

[print(v*10), w=4, z=3, y=2, ((v=0;repeat((print(v);v=v+1)) until(v==3));x=1)]

SymTable:

{}

Out:

[]

FileTable:


----------------------------------------------------------
ExeStack:

[print(v*10), w=4, z=3, y=2, x=1, (v=0;repeat((print(v);v=v+1)) until(v==3))]

SymTable:

{}

Out:

[]

FileTable:


----------------------------------------------------------
ExeStack:

[print(v*10), w=4, z=3, y=2, x=1, (v=0;repeat((print(v);v=v+1)) until(v==3))]

SymTable:

{}

Out:

[]

FileTable:


----------------------------------------------------------
ExeStack:

[print(v*10), w=4, z=3, y=2, x=1, repeat((print(v);v=v+1)) until(v==3), v=0]

SymTable:

{}

Out:

[]

FileTable:


----------------------------------------------------------
ExeStack:

[print(v*10), w=4, z=3, y=2, x=1, repeat((print(v);v=v+1)) until(v==3), v=0]

SymTable:

{}

Out:

[]

FileTable:


----------------------------------------------------------
ExeStack:

[print(v*10), w=4, z=3, y=2, x=1, repeat((print(v);v=v+1)) until(v==3)]

SymTable:

{v=0}

Out:

[]

FileTable:


----------------------------------------------------------
ExeStack:

[print(v*10), w=4, z=3, y=2, x=1, repeat((print(v);v=v+1)) until(v==3)]

SymTable:

{v=0}

Out:

[]

FileTable:


----------------------------------------------------------
ExeStack:

[print(v*10), w=4, z=3, y=2, x=1, while(v!=3) (print(v);v=v+1), (print(v);v=v+1)]

SymTable:

{v=0}

Out:

[]

FileTable:


----------------------------------------------------------
ExeStack:

[print(v*10), w=4, z=3, y=2, x=1, while(v!=3) (print(v);v=v+1), (print(v);v=v+1)]

SymTable:

{v=0}

Out:

[]

FileTable:


----------------------------------------------------------
ExeStack:

[print(v*10), w=4, z=3, y=2, x=1, while(v!=3) (print(v);v=v+1), v=v+1, print(v)]

SymTable:

{v=0}

Out:

[]

FileTable:


----------------------------------------------------------
ExeStack:

[print(v*10), w=4, z=3, y=2, x=1, while(v!=3) (print(v);v=v+1), v=v+1, print(v)]

SymTable:

{v=0}

Out:

[]

FileTable:


----------------------------------------------------------
ExeStack:

[print(v*10), w=4, z=3, y=2, x=1, while(v!=3) (print(v);v=v+1), v=v+1]

SymTable:

{v=0}

Out:

[0]

FileTable:


----------------------------------------------------------
ExeStack:

[print(v*10), w=4, z=3, y=2, x=1, while(v!=3) (print(v);v=v+1), v=v+1]

SymTable:

{v=0}

Out:

[0]

FileTable:


----------------------------------------------------------
ExeStack:

[print(v*10), w=4, z=3, y=2, x=1, while(v!=3) (print(v);v=v+1)]

SymTable:

{v=1}

Out:

[0]

FileTable:


----------------------------------------------------------
ExeStack:

[print(v*10), w=4, z=3, y=2, x=1, while(v!=3) (print(v);v=v+1)]

SymTable:

{v=1}

Out:

[0]

FileTable:


----------------------------------------------------------
ExeStack:

[print(v*10), w=4, z=3, y=2, x=1, while(v!=3) (print(v);v=v+1), (print(v);v=v+1)]

SymTable:

{v=1}

Out:

[0]

FileTable:


----------------------------------------------------------
ExeStack:

[print(v*10), w=4, z=3, y=2, x=1, while(v!=3) (print(v);v=v+1), (print(v);v=v+1)]

SymTable:

{v=1}

Out:

[0]

FileTable:


----------------------------------------------------------
ExeStack:

[print(v*10), w=4, z=3, y=2, x=1, while(v!=3) (print(v);v=v+1), v=v+1, print(v)]

SymTable:

{v=1}

Out:

[0]

FileTable:


----------------------------------------------------------
ExeStack:

[print(v*10), w=4, z=3, y=2, x=1, while(v!=3) (print(v);v=v+1), v=v+1, print(v)]

SymTable:

{v=1}

Out:

[0]

FileTable:


----------------------------------------------------------
ExeStack:

[print(v*10), w=4, z=3, y=2, x=1, while(v!=3) (print(v);v=v+1), v=v+1]

SymTable:

{v=1}

Out:

[0, 1]

FileTable:


----------------------------------------------------------
ExeStack:

[print(v*10), w=4, z=3, y=2, x=1, while(v!=3) (print(v);v=v+1), v=v+1]

SymTable:

{v=1}

Out:

[0, 1]

FileTable:


----------------------------------------------------------
ExeStack:

[print(v*10), w=4, z=3, y=2, x=1, while(v!=3) (print(v);v=v+1)]

SymTable:

{v=2}

Out:

[0, 1]

FileTable:


----------------------------------------------------------
ExeStack:

[print(v*10), w=4, z=3, y=2, x=1, while(v!=3) (print(v);v=v+1)]

SymTable:

{v=2}

Out:

[0, 1]

FileTable:


----------------------------------------------------------
ExeStack:

[print(v*10), w=4, z=3, y=2, x=1, while(v!=3) (print(v);v=v+1), (print(v);v=v+1)]

SymTable:

{v=2}

Out:

[0, 1]

FileTable:


----------------------------------------------------------
ExeStack:

[((((((v=0;repeat((print(v);v=v+1)) until(v==3));x=1);y=2);z=3);w=4);print(v*10))]

SymTable:

{}

Out:

[]

FileTable:


----------------------------------------------------------
ExeStack:

[print(v*10), (((((v=0;repeat((print(v);v=v+1)) until(v==3));x=1);y=2);z=3);w=4)]

SymTable:

{}

Out:

[]

FileTable:


----------------------------------------------------------
ExeStack:

[print(v*10), (((((v=0;repeat((print(v);v=v+1)) until(v==3));x=1);y=2);z=3);w=4)]

SymTable:

{}

Out:

[]

FileTable:


----------------------------------------------------------
ExeStack:

[print(v*10), w=4, ((((v=0;repeat((print(v);v=v+1)) until(v==3));x=1);y=2);z=3)]

SymTable:

{}

Out:

[]

FileTable:


----------------------------------------------------------
ExeStack:

[print(v*10), w=4, ((((v=0;repeat((print(v);v=v+1)) until(v==3));x=1);y=2);z=3)]

SymTable:

{}

Out:

[]

FileTable:


----------------------------------------------------------
ExeStack:

[print(v*10), w=4, z=3, (((v=0;repeat((print(v);v=v+1)) until(v==3));x=1);y=2)]

SymTable:

{}

Out:

[]

FileTable:


----------------------------------------------------------
ExeStack:

[print(v*10), w=4, z=3, (((v=0;repeat((print(v);v=v+1)) until(v==3));x=1);y=2)]

SymTable:

{}

Out:

[]

FileTable:


----------------------------------------------------------
ExeStack:

[print(v*10), w=4, z=3, y=2, ((v=0;repeat((print(v);v=v+1)) until(v==3));x=1)]

SymTable:

{}

Out:

[]

FileTable:


----------------------------------------------------------
ExeStack:

[print(v*10), w=4, z=3, y=2, ((v=0;repeat((print(v);v=v+1)) until(v==3));x=1)]

SymTable:

{}

Out:

[]

FileTable:


----------------------------------------------------------
ExeStack:

[print(v*10), w=4, z=3, y=2, x=1, (v=0;repeat((print(v);v=v+1)) until(v==3))]

SymTable:

{}

Out:

[]

FileTable:


----------------------------------------------------------
ExeStack:

[print(v*10), w=4, z=3, y=2, x=1, (v=0;repeat((print(v);v=v+1)) until(v==3))]

SymTable:

{}

Out:

[]

FileTable:


----------------------------------------------------------
ExeStack:

[print(v*10), w=4, z=3, y=2, x=1, repeat((print(v);v=v+1)) until(v==3), v=0]

SymTable:

{}

Out:

[]

FileTable:


----------------------------------------------------------
ExeStack:

[print(v*10), w=4, z=3, y=2, x=1, repeat((print(v);v=v+1)) until(v==3), v=0]

SymTable:

{}

Out:

[]

FileTable:


----------------------------------------------------------
ExeStack:

[print(v*10), w=4, z=3, y=2, x=1, repeat((print(v);v=v+1)) until(v==3)]

SymTable:

{v=0}

Out:

[]

FileTable:


----------------------------------------------------------
ExeStack:

[print(v*10), w=4, z=3, y=2, x=1, repeat((print(v);v=v+1)) until(v==3)]

SymTable:

{v=0}

Out:

[]

FileTable:


----------------------------------------------------------
ExeStack:

[print(v*10), w=4, z=3, y=2, x=1, while(v!=3) (print(v);v=v+1), (print(v);v=v+1)]

SymTable:

{v=0}

Out:

[]

FileTable:


----------------------------------------------------------
ExeStack:

[print(v*10), w=4, z=3, y=2, x=1, while(v!=3) (print(v);v=v+1), (print(v);v=v+1)]

SymTable:

{v=0}

Out:

[]

FileTable:


----------------------------------------------------------
ExeStack:

[print(v*10), w=4, z=3, y=2, x=1, while(v!=3) (print(v);v=v+1), v=v+1, print(v)]

SymTable:

{v=0}

Out:

[]

FileTable:


----------------------------------------------------------
ExeStack:

[print(v*10), w=4, z=3, y=2, x=1, while(v!=3) (print(v);v=v+1), v=v+1, print(v)]

SymTable:

{v=0}

Out:

[]

FileTable:


----------------------------------------------------------
ExeStack:

[print(v*10), w=4, z=3, y=2, x=1, while(v!=3) (print(v);v=v+1), v=v+1]

SymTable:

{v=0}

Out:

[0]

FileTable:


----------------------------------------------------------
ExeStack:

[print(v*10), w=4, z=3, y=2, x=1, while(v!=3) (print(v);v=v+1), v=v+1]

SymTable:

{v=0}

Out:

[0]

FileTable:


----------------------------------------------------------
ExeStack:

[print(v*10), w=4, z=3, y=2, x=1, while(v!=3) (print(v);v=v+1)]

SymTable:

{v=1}

Out:

[0]

FileTable:


----------------------------------------------------------
ExeStack:

[print(v*10), w=4, z=3, y=2, x=1, while(v!=3) (print(v);v=v+1)]

SymTable:

{v=1}

Out:

[0]

FileTable:


----------------------------------------------------------
ExeStack:

[print(v*10), w=4, z=3, y=2, x=1, while(v!=3) (print(v);v=v+1), (print(v);v=v+1)]

SymTable:

{v=1}

Out:

[0]

FileTable:


----------------------------------------------------------
ExeStack:

[print(v*10), w=4, z=3, y=2, x=1, while(v!=3) (print(v);v=v+1), (print(v);v=v+1)]

SymTable:

{v=1}

Out:

[0]

FileTable:


----------------------------------------------------------
ExeStack:

[print(v*10), w=4, z=3, y=2, x=1, while(v!=3) (print(v);v=v+1), v=v+1, print(v)]

SymTable:

{v=1}

Out:

[0]

FileTable:


----------------------------------------------------------
ExeStack:

[print(v*10), w=4, z=3, y=2, x=1, while(v!=3) (print(v);v=v+1), v=v+1, print(v)]

SymTable:

{v=1}

Out:

[0]

FileTable:


----------------------------------------------------------
ExeStack:

[print(v*10), w=4, z=3, y=2, x=1, while(v!=3) (print(v);v=v+1), v=v+1]

SymTable:

{v=1}

Out:

[0, 1]

FileTable:


----------------------------------------------------------
ExeStack:

[print(v*10), w=4, z=3, y=2, x=1, while(v!=3) (print(v);v=v+1), v=v+1]

SymTable:

{v=1}

Out:

[0, 1]

FileTable:


----------------------------------------------------------
ExeStack:

[print(v*10), w=4, z=3, y=2, x=1, while(v!=3) (print(v);v=v+1)]

SymTable:

{v=2}

Out:

[0, 1]

FileTable:


----------------------------------------------------------
ExeStack:

[print(v*10), w=4, z=3, y=2, x=1, while(v!=3) (print(v);v=v+1)]

SymTable:

{v=2}

Out:

[0, 1]

FileTable:


----------------------------------------------------------
ExeStack:

[print(v*10), w=4, z=3, y=2, x=1, while(v!=3) (print(v);v=v+1), (print(v);v=v+1)]

SymTable:

{v=2}

Out:

[0, 1]

FileTable:


----------------------------------------------------------
ExeStack:

[print(v*10), w=4, z=3, y=2, x=1, while(v!=3) (print(v);v=v+1), (print(v);v=v+1)]

SymTable:

{v=2}

Out:

[0, 1]

FileTable:


----------------------------------------------------------
ExeStack:

[print(v*10), w=4, z=3, y=2, x=1, while(v!=3) (print(v);v=v+1), v=v+1, print(v)]

SymTable:

{v=2}

Out:

[0, 1]

FileTable:


----------------------------------------------------------
ExeStack:

[print(v*10), w=4, z=3, y=2, x=1, while(v!=3) (print(v);v=v+1), v=v+1, print(v)]

SymTable:

{v=2}

Out:

[0, 1]

FileTable:


----------------------------------------------------------
ExeStack:

[print(v*10), w=4, z=3, y=2, x=1, while(v!=3) (print(v);v=v+1), v=v+1]

SymTable:

{v=2}

Out:

[0, 1, 2]

FileTable:


----------------------------------------------------------
ExeStack:

[print(v*10), w=4, z=3, y=2, x=1, while(v!=3) (print(v);v=v+1), v=v+1]

SymTable:

{v=2}

Out:

[0, 1, 2]

FileTable:


----------------------------------------------------------
ExeStack:

[print(v*10), w=4, z=3, y=2, x=1, while(v!=3) (print(v);v=v+1)]

SymTable:

{v=3}

Out:

[0, 1, 2]

FileTable:


----------------------------------------------------------
ExeStack:

[print(v*10), w=4, z=3, y=2, x=1, while(v!=3) (print(v);v=v+1)]

SymTable:

{v=3}

Out:

[0, 1, 2]

FileTable:


----------------------------------------------------------
ExeStack:

[print(v*10), w=4, z=3, y=2, x=1]

SymTable:

{v=3}

Out:

[0, 1, 2]

FileTable:


----------------------------------------------------------
ExeStack:

[print(v*10), w=4, z=3, y=2, x=1]

SymTable:

{v=3}

Out:

[0, 1, 2]

FileTable:


----------------------------------------------------------
ExeStack:

[print(v*10), w=4, z=3, y=2]

SymTable:

{v=3, x=1}

Out:

[0, 1, 2]

FileTable:


----------------------------------------------------------
ExeStack:

[print(v*10), w=4, z=3, y=2]

SymTable:

{v=3, x=1}

Out:

[0, 1, 2]

FileTable:


----------------------------------------------------------
ExeStack:

[print(v*10), w=4, z=3]

SymTable:

{v=3, x=1, y=2}

Out:

[0, 1, 2]

FileTable:


----------------------------------------------------------
ExeStack:

[print(v*10), w=4, z=3]

SymTable:

{v=3, x=1, y=2}

Out:

[0, 1, 2]

FileTable:


----------------------------------------------------------
ExeStack:

[print(v*10), w=4]

SymTable:

{v=3, x=1, y=2, z=3}

Out:

[0, 1, 2]

FileTable:


----------------------------------------------------------
ExeStack:

[print(v*10), w=4]

SymTable:

{v=3, x=1, y=2, z=3}

Out:

[0, 1, 2]

FileTable:


----------------------------------------------------------
ExeStack:

[print(v*10)]

SymTable:

{v=3, w=4, x=1, y=2, z=3}

Out:

[0, 1, 2]

FileTable:


----------------------------------------------------------
ExeStack:

[print(v*10)]

SymTable:

{v=3, w=4, x=1, y=2, z=3}

Out:

[0, 1, 2]

FileTable:


----------------------------------------------------------
ExeStack:

[]

SymTable:

{v=3, w=4, x=1, y=2, z=3}

Out:

[0, 1, 2, 30]

FileTable:


----------------------------------------------------------
ExeStack:

[((((((v=0;repeat((print(v);v=v+1)) until(v==3));x=1);y=2);z=3);w=4);print(v*10))]

SymTable:

{}

Out:

[]

FileTable:


----------------------------------------------------------
ExeStack:

[print(v*10), (((((v=0;repeat((print(v);v=v+1)) until(v==3));x=1);y=2);z=3);w=4)]

SymTable:

{}

Out:

[]

FileTable:


----------------------------------------------------------
ExeStack:

[print(v*10), (((((v=0;repeat((print(v);v=v+1)) until(v==3));x=1);y=2);z=3);w=4)]

SymTable:

{}

Out:

[]

FileTable:


----------------------------------------------------------
ExeStack:

[print(v*10), w=4, ((((v=0;repeat((print(v);v=v+1)) until(v==3));x=1);y=2);z=3)]

SymTable:

{}

Out:

[]

FileTable:


----------------------------------------------------------
ExeStack:

[print(v*10), w=4, ((((v=0;repeat((print(v);v=v+1)) until(v==3));x=1);y=2);z=3)]

SymTable:

{}

Out:

[]

FileTable:


----------------------------------------------------------
ExeStack:

[print(v*10), w=4, z=3, (((v=0;repeat((print(v);v=v+1)) until(v==3));x=1);y=2)]

SymTable:

{}

Out:

[]

FileTable:


----------------------------------------------------------
ExeStack:

[print(v*10), w=4, z=3, (((v=0;repeat((print(v);v=v+1)) until(v==3));x=1);y=2)]

SymTable:

{}

Out:

[]

FileTable:


----------------------------------------------------------
ExeStack:

[print(v*10), w=4, z=3, y=2, ((v=0;repeat((print(v);v=v+1)) until(v==3));x=1)]

SymTable:

{}

Out:

[]

FileTable:


----------------------------------------------------------
ExeStack:

[print(v*10), w=4, z=3, y=2, ((v=0;repeat((print(v);v=v+1)) until(v==3));x=1)]

SymTable:

{}

Out:

[]

FileTable:


----------------------------------------------------------
ExeStack:

[print(v*10), w=4, z=3, y=2, x=1, (v=0;repeat((print(v);v=v+1)) until(v==3))]

SymTable:

{}

Out:

[]

FileTable:


----------------------------------------------------------
ExeStack:

[print(v*10), w=4, z=3, y=2, x=1, (v=0;repeat((print(v);v=v+1)) until(v==3))]

SymTable:

{}

Out:

[]

FileTable:


----------------------------------------------------------
ExeStack:

[print(v*10), w=4, z=3, y=2, x=1, repeat((print(v);v=v+1)) until(v==3), v=0]

SymTable:

{}

Out:

[]

FileTable:


----------------------------------------------------------
ExeStack:

[print(v*10), w=4, z=3, y=2, x=1, repeat((print(v);v=v+1)) until(v==3), v=0]

SymTable:

{}

Out:

[]

FileTable:


----------------------------------------------------------
ExeStack:

[print(v*10), w=4, z=3, y=2, x=1, repeat((print(v);v=v+1)) until(v==3)]

SymTable:

{v=0}

Out:

[]

FileTable:


----------------------------------------------------------
ExeStack:

[print(v*10), w=4, z=3, y=2, x=1, repeat((print(v);v=v+1)) until(v==3)]

SymTable:

{v=0}

Out:

[]

FileTable:


----------------------------------------------------------
ExeStack:

[print(v*10), w=4, z=3, y=2, x=1, while(v!=3) (print(v);v=v+1), (print(v);v=v+1)]

SymTable:

{v=0}

Out:

[]

FileTable:


----------------------------------------------------------
ExeStack:

[print(v*10), w=4, z=3, y=2, x=1, while(v!=3) (print(v);v=v+1), (print(v);v=v+1)]

SymTable:

{v=0}

Out:

[]

FileTable:


----------------------------------------------------------
ExeStack:

[print(v*10), w=4, z=3, y=2, x=1, while(v!=3) (print(v);v=v+1), v=v+1, print(v)]

SymTable:

{v=0}

Out:

[]

FileTable:


----------------------------------------------------------
ExeStack:

[print(v*10), w=4, z=3, y=2, x=1, while(v!=3) (print(v);v=v+1), v=v+1, print(v)]

SymTable:

{v=0}

Out:

[]

FileTable:


----------------------------------------------------------
ExeStack:

[print(v*10), w=4, z=3, y=2, x=1, while(v!=3) (print(v);v=v+1), v=v+1]

SymTable:

{v=0}

Out:

[0]

FileTable:


----------------------------------------------------------
ExeStack:

[print(v*10), w=4, z=3, y=2, x=1, while(v!=3) (print(v);v=v+1), v=v+1]

SymTable:

{v=0}

Out:

[0]

FileTable:


----------------------------------------------------------
ExeStack:

[print(v*10), w=4, z=3, y=2, x=1, while(v!=3) (print(v);v=v+1)]

SymTable:

{v=1}

Out:

[0]

FileTable:


----------------------------------------------------------
ExeStack:

[print(v*10), w=4, z=3, y=2, x=1, while(v!=3) (print(v);v=v+1)]

SymTable:

{v=1}

Out:

[0]

FileTable:


----------------------------------------------------------
ExeStack:

[print(v*10), w=4, z=3, y=2, x=1, while(v!=3) (print(v);v=v+1), (print(v);v=v+1)]

SymTable:

{v=1}

Out:

[0]

FileTable:


----------------------------------------------------------
ExeStack:

[print(v*10), w=4, z=3, y=2, x=1, while(v!=3) (print(v);v=v+1), (print(v);v=v+1)]

SymTable:

{v=1}

Out:

[0]

FileTable:


----------------------------------------------------------
ExeStack:

[print(v*10), w=4, z=3, y=2, x=1, while(v!=3) (print(v);v=v+1), v=v+1, print(v)]

SymTable:

{v=1}

Out:

[0]

FileTable:


----------------------------------------------------------
ExeStack:

[print(v*10), w=4, z=3, y=2, x=1, while(v!=3) (print(v);v=v+1), v=v+1, print(v)]

SymTable:

{v=1}

Out:

[0]

FileTable:


----------------------------------------------------------
ExeStack:

[print(v*10), w=4, z=3, y=2, x=1, while(v!=3) (print(v);v=v+1), v=v+1]

SymTable:

{v=1}

Out:

[0, 1]

FileTable:


----------------------------------------------------------
ExeStack:

[print(v*10), w=4, z=3, y=2, x=1, while(v!=3) (print(v);v=v+1), v=v+1]

SymTable:

{v=1}

Out:

[0, 1]

FileTable:


----------------------------------------------------------
ExeStack:

[print(v*10), w=4, z=3, y=2, x=1, while(v!=3) (print(v);v=v+1)]

SymTable:

{v=2}

Out:

[0, 1]

FileTable:


----------------------------------------------------------
ExeStack:

[print(v*10), w=4, z=3, y=2, x=1, while(v!=3) (print(v);v=v+1)]

SymTable:

{v=2}

Out:

[0, 1]

FileTable:


----------------------------------------------------------
ExeStack:

[print(v*10), w=4, z=3, y=2, x=1, while(v!=3) (print(v);v=v+1), (print(v);v=v+1)]

SymTable:

{v=2}

Out:

[0, 1]

FileTable:


----------------------------------------------------------
ExeStack:

[print(v*10), w=4, z=3, y=2, x=1, while(v!=3) (print(v);v=v+1), (print(v);v=v+1)]

SymTable:

{v=2}

Out:

[0, 1]

FileTable:


----------------------------------------------------------
ExeStack:

[print(v*10), w=4, z=3, y=2, x=1, while(v!=3) (print(v);v=v+1), v=v+1, print(v)]

SymTable:

{v=2}

Out:

[0, 1]

FileTable:


----------------------------------------------------------
ExeStack:

[print(v*10), w=4, z=3, y=2, x=1, while(v!=3) (print(v);v=v+1), v=v+1, print(v)]

SymTable:

{v=2}

Out:

[0, 1]

FileTable:


----------------------------------------------------------
ExeStack:

[print(v*10), w=4, z=3, y=2, x=1, while(v!=3) (print(v);v=v+1), v=v+1]

SymTable:

{v=2}

Out:

[0, 1, 2]

FileTable:


----------------------------------------------------------
ExeStack:

[print(v*10), w=4, z=3, y=2, x=1, while(v!=3) (print(v);v=v+1), v=v+1]

SymTable:

{v=2}

Out:

[0, 1, 2]

FileTable:


----------------------------------------------------------
ExeStack:

[print(v*10), w=4, z=3, y=2, x=1, while(v!=3) (print(v);v=v+1)]

SymTable:

{v=3}

Out:

[0, 1, 2]

FileTable:


----------------------------------------------------------
ExeStack:

[print(v*10), w=4, z=3, y=2, x=1, while(v!=3) (print(v);v=v+1)]

SymTable:

{v=3}

Out:

[0, 1, 2]

FileTable:


----------------------------------------------------------
ExeStack:

[print(v*10), w=4, z=3, y=2, x=1]

SymTable:

{v=3}

Out:

[0, 1, 2]

FileTable:


----------------------------------------------------------
ExeStack:

[print(v*10), w=4, z=3, y=2, x=1]

SymTable:

{v=3}

Out:

[0, 1, 2]

FileTable:


----------------------------------------------------------
ExeStack:

[print(v*10), w=4, z=3, y=2]

SymTable:

{v=3, x=1}

Out:

[0, 1, 2]

FileTable:


----------------------------------------------------------
ExeStack:

[print(v*10), w=4, z=3, y=2]

SymTable:

{v=3, x=1}

Out:

[0, 1, 2]

FileTable:


----------------------------------------------------------
ExeStack:

[print(v*10), w=4, z=3]

SymTable:

{v=3, x=1, y=2}

Out:

[0, 1, 2]

FileTable:


----------------------------------------------------------
ExeStack:

[print(v*10), w=4, z=3]

SymTable:

{v=3, x=1, y=2}

Out:

[0, 1, 2]

FileTable:


----------------------------------------------------------
ExeStack:

[print(v*10), w=4]

SymTable:

{v=3, x=1, y=2, z=3}

Out:

[0, 1, 2]

FileTable:


----------------------------------------------------------
ExeStack:

[print(v*10), w=4]

SymTable:

{v=3, x=1, y=2, z=3}

Out:

[0, 1, 2]

FileTable:


----------------------------------------------------------
ExeStack:

[print(v*10)]

SymTable:

{v=3, w=4, x=1, y=2, z=3}

Out:

[0, 1, 2]

FileTable:


----------------------------------------------------------
ExeStack:

[print(v*10)]

SymTable:

{v=3, w=4, x=1, y=2, z=3}

Out:

[0, 1, 2]

FileTable:


----------------------------------------------------------
ExeStack:

[]

SymTable:

{v=3, w=4, x=1, y=2, z=3}

Out:

[0, 1, 2, 30]

FileTable:


----------------------------------------------------------
ExeStack:

[((((((v=0;repeat((print(v);v=v+1)) until(v==3));x=1);y=2);z=3);w=4);print(v*10))]

SymTable:

{}

Out:

[]

FileTable:


----------------------------------------------------------
ExeStack:

[print(v*10), (((((v=0;repeat((print(v);v=v+1)) until(v==3));x=1);y=2);z=3);w=4)]

SymTable:

{}

Out:

[]

FileTable:


----------------------------------------------------------
ExeStack:

[print(v*10), (((((v=0;repeat((print(v);v=v+1)) until(v==3));x=1);y=2);z=3);w=4)]

SymTable:

{}

Out:

[]

FileTable:


----------------------------------------------------------
ExeStack:

[print(v*10), w=4, ((((v=0;repeat((print(v);v=v+1)) until(v==3));x=1);y=2);z=3)]

SymTable:

{}

Out:

[]

FileTable:


----------------------------------------------------------
ExeStack:

[print(v*10), w=4, ((((v=0;repeat((print(v);v=v+1)) until(v==3));x=1);y=2);z=3)]

SymTable:

{}

Out:

[]

FileTable:


----------------------------------------------------------
ExeStack:

[print(v*10), w=4, z=3, (((v=0;repeat((print(v);v=v+1)) until(v==3));x=1);y=2)]

SymTable:

{}

Out:

[]

FileTable:


----------------------------------------------------------
ExeStack:

[print(v*10), w=4, z=3, (((v=0;repeat((print(v);v=v+1)) until(v==3));x=1);y=2)]

SymTable:

{}

Out:

[]

FileTable:


----------------------------------------------------------
ExeStack:

[print(v*10), w=4, z=3, y=2, ((v=0;repeat((print(v);v=v+1)) until(v==3));x=1)]

SymTable:

{}

Out:

[]

FileTable:


----------------------------------------------------------
ExeStack:

[print(v*10), w=4, z=3, y=2, ((v=0;repeat((print(v);v=v+1)) until(v==3));x=1)]

SymTable:

{}

Out:

[]

FileTable:


----------------------------------------------------------
ExeStack:

[print(v*10), w=4, z=3, y=2, x=1, (v=0;repeat((print(v);v=v+1)) until(v==3))]

SymTable:

{}

Out:

[]

FileTable:


----------------------------------------------------------
ExeStack:

[print(v*10), w=4, z=3, y=2, x=1, (v=0;repeat((print(v);v=v+1)) until(v==3))]

SymTable:

{}

Out:

[]

FileTable:


----------------------------------------------------------
ExeStack:

[print(v*10), w=4, z=3, y=2, x=1, repeat((print(v);v=v+1)) until(v==3), v=0]

SymTable:

{}

Out:

[]

FileTable:


----------------------------------------------------------
ExeStack:

[print(v*10), w=4, z=3, y=2, x=1, repeat((print(v);v=v+1)) until(v==3), v=0]

SymTable:

{}

Out:

[]

FileTable:


----------------------------------------------------------
ExeStack:

[print(v*10), w=4, z=3, y=2, x=1, repeat((print(v);v=v+1)) until(v==3)]

SymTable:

{v=0}

Out:

[]

FileTable:


----------------------------------------------------------
ExeStack:

[print(v*10), w=4, z=3, y=2, x=1, repeat((print(v);v=v+1)) until(v==3)]

SymTable:

{v=0}

Out:

[]

FileTable:


----------------------------------------------------------
ExeStack:

[print(v*10), w=4, z=3, y=2, x=1, while(v!=3) (print(v);v=v+1), (print(v);v=v+1)]

SymTable:

{v=0}

Out:

[]

FileTable:


----------------------------------------------------------
ExeStack:

[((((((v=0;repeat((print(v);v=v+1)) until(v==3));x=1);y=2);z=3);w=4);print(v*10))]

SymTable:

{}

Out:

[]

FileTable:


----------------------------------------------------------
ExeStack:

[print(v*10), (((((v=0;repeat((print(v);v=v+1)) until(v==3));x=1);y=2);z=3);w=4)]

SymTable:

{}

Out:

[]

FileTable:


----------------------------------------------------------
ExeStack:

[print(v*10), (((((v=0;repeat((print(v);v=v+1)) until(v==3));x=1);y=2);z=3);w=4)]

SymTable:

{}

Out:

[]

FileTable:


----------------------------------------------------------
ExeStack:

[print(v*10), w=4, ((((v=0;repeat((print(v);v=v+1)) until(v==3));x=1);y=2);z=3)]

SymTable:

{}

Out:

[]

FileTable:


----------------------------------------------------------
ExeStack:

[print(v*10), w=4, ((((v=0;repeat((print(v);v=v+1)) until(v==3));x=1);y=2);z=3)]

SymTable:

{}

Out:

[]

FileTable:


----------------------------------------------------------
ExeStack:

[print(v*10), w=4, z=3, (((v=0;repeat((print(v);v=v+1)) until(v==3));x=1);y=2)]

SymTable:

{}

Out:

[]

FileTable:


----------------------------------------------------------
ExeStack:

[print(v*10), w=4, z=3, (((v=0;repeat((print(v);v=v+1)) until(v==3));x=1);y=2)]

SymTable:

{}

Out:

[]

FileTable:


----------------------------------------------------------
ExeStack:

[print(v*10), w=4, z=3, y=2, ((v=0;repeat((print(v);v=v+1)) until(v==3));x=1)]

SymTable:

{}

Out:

[]

FileTable:


----------------------------------------------------------
ExeStack:

[print(v*10), w=4, z=3, y=2, ((v=0;repeat((print(v);v=v+1)) until(v==3));x=1)]

SymTable:

{}

Out:

[]

FileTable:


----------------------------------------------------------
ExeStack:

[print(v*10), w=4, z=3, y=2, x=1, (v=0;repeat((print(v);v=v+1)) until(v==3))]

SymTable:

{}

Out:

[]

FileTable:


----------------------------------------------------------
ExeStack:

[print(v*10), w=4, z=3, y=2, x=1, (v=0;repeat((print(v);v=v+1)) until(v==3))]

SymTable:

{}

Out:

[]

FileTable:


----------------------------------------------------------
ExeStack:

[print(v*10), w=4, z=3, y=2, x=1, repeat((print(v);v=v+1)) until(v==3), v=0]

SymTable:

{}

Out:

[]

FileTable:


----------------------------------------------------------
ExeStack:

[print(v*10), w=4, z=3, y=2, x=1, repeat((print(v);v=v+1)) until(v==3), v=0]

SymTable:

{}

Out:

[]

FileTable:


----------------------------------------------------------
ExeStack:

[print(v*10), w=4, z=3, y=2, x=1, repeat((print(v);v=v+1)) until(v==3)]

SymTable:

{v=0}

Out:

[]

FileTable:


----------------------------------------------------------
ExeStack:

[print(v*10), w=4, z=3, y=2, x=1, repeat((print(v);v=v+1)) until(v==3)]

SymTable:

{v=0}

Out:

[]

FileTable:


----------------------------------------------------------
ExeStack:

[print(v*10), w=4, z=3, y=2, x=1, while(v!=3) (print(v);v=v+1), (print(v);v=v+1)]

SymTable:

{v=0}

Out:

[]

FileTable:


----------------------------------------------------------
ExeStack:

[print(v*10), w=4, z=3, y=2, x=1, while(v!=3) (print(v);v=v+1), (print(v);v=v+1)]

SymTable:

{v=0}

Out:

[]

FileTable:


----------------------------------------------------------
ExeStack:

[print(v*10), w=4, z=3, y=2, x=1, while(v!=3) (print(v);v=v+1), v=v+1, print(v)]

SymTable:

{v=0}

Out:

[]

FileTable:


----------------------------------------------------------
ExeStack:

[print(v*10), w=4, z=3, y=2, x=1, while(v!=3) (print(v);v=v+1), v=v+1, print(v)]

SymTable:

{v=0}

Out:

[]

FileTable:


----------------------------------------------------------
ExeStack:

[print(v*10), w=4, z=3, y=2, x=1, while(v!=3) (print(v);v=v+1), v=v+1]

SymTable:

{v=0}

Out:

[0]

FileTable:


----------------------------------------------------------
ExeStack:

[print(v*10), w=4, z=3, y=2, x=1, while(v!=3) (print(v);v=v+1), v=v+1]

SymTable:

{v=0}

Out:

[0]

FileTable:


----------------------------------------------------------
ExeStack:

[print(v*10), w=4, z=3, y=2, x=1, while(v!=3) (print(v);v=v+1)]

SymTable:

{v=1}

Out:

[0]

FileTable:


----------------------------------------------------------
ExeStack:

[print(v*10), w=4, z=3, y=2, x=1, while(v!=3) (print(v);v=v+1)]

SymTable:

{v=1}

Out:

[0]

FileTable:


----------------------------------------------------------
ExeStack:

[print(v*10), w=4, z=3, y=2, x=1, while(v!=3) (print(v);v=v+1), (print(v);v=v+1)]

SymTable:

{v=1}

Out:

[0]

FileTable:


----------------------------------------------------------
ExeStack:

[print(v*10), w=4, z=3, y=2, x=1, while(v!=3) (print(v);v=v+1), (print(v);v=v+1)]

SymTable:

{v=1}

Out:

[0]

FileTable:


----------------------------------------------------------
ExeStack:

[print(v*10), w=4, z=3, y=2, x=1, while(v!=3) (print(v);v=v+1), v=v+1, print(v)]

SymTable:

{v=1}

Out:

[0]

FileTable:


----------------------------------------------------------
ExeStack:

[print(v*10), w=4, z=3, y=2, x=1, while(v!=3) (print(v);v=v+1), v=v+1, print(v)]

SymTable:

{v=1}

Out:

[0]

FileTable:


----------------------------------------------------------
ExeStack:

[print(v*10), w=4, z=3, y=2, x=1, while(v!=3) (print(v);v=v+1), v=v+1]

SymTable:

{v=1}

Out:

[0, 1]

FileTable:


----------------------------------------------------------
ExeStack:

[print(v*10), w=4, z=3, y=2, x=1, while(v!=3) (print(v);v=v+1), v=v+1]

SymTable:

{v=1}

Out:

[0, 1]

FileTable:


----------------------------------------------------------
ExeStack:

[print(v*10), w=4, z=3, y=2, x=1, while(v!=3) (print(v);v=v+1)]

SymTable:

{v=2}

Out:

[0, 1]

FileTable:


----------------------------------------------------------
ExeStack:

[print(v*10), w=4, z=3, y=2, x=1, while(v!=3) (print(v);v=v+1)]

SymTable:

{v=2}

Out:

[0, 1]

FileTable:


----------------------------------------------------------
ExeStack:

[print(v*10), w=4, z=3, y=2, x=1, while(v!=3) (print(v);v=v+1), (print(v);v=v+1)]

SymTable:

{v=2}

Out:

[0, 1]

FileTable:


----------------------------------------------------------
ExeStack:

[print(v*10), w=4, z=3, y=2, x=1, while(v!=3) (print(v);v=v+1), (print(v);v=v+1)]

SymTable:

{v=2}

Out:

[0, 1]

FileTable:


----------------------------------------------------------
ExeStack:

[print(v*10), w=4, z=3, y=2, x=1, while(v!=3) (print(v);v=v+1), v=v+1, print(v)]

SymTable:

{v=2}

Out:

[0, 1]

FileTable:


----------------------------------------------------------
ExeStack:

[print(v*10), w=4, z=3, y=2, x=1, while(v!=3) (print(v);v=v+1), v=v+1, print(v)]

SymTable:

{v=2}

Out:

[0, 1]

FileTable:


----------------------------------------------------------
ExeStack:

[print(v*10), w=4, z=3, y=2, x=1, while(v!=3) (print(v);v=v+1), v=v+1]

SymTable:

{v=2}

Out:

[0, 1, 2]

FileTable:


----------------------------------------------------------
ExeStack:

[print(v*10), w=4, z=3, y=2, x=1, while(v!=3) (print(v);v=v+1), v=v+1]

SymTable:

{v=2}

Out:

[0, 1, 2]

FileTable:


----------------------------------------------------------
ExeStack:

[print(v*10), w=4, z=3, y=2, x=1, while(v!=3) (print(v);v=v+1)]

SymTable:

{v=3}

Out:

[0, 1, 2]

FileTable:


----------------------------------------------------------
ExeStack:

[print(v*10), w=4, z=3, y=2, x=1, while(v!=3) (print(v);v=v+1)]

SymTable:

{v=3}

Out:

[0, 1, 2]

FileTable:


----------------------------------------------------------
ExeStack:

[print(v*10), w=4, z=3, y=2, x=1]

SymTable:

{v=3}

Out:

[0, 1, 2]

FileTable:


----------------------------------------------------------
ExeStack:

[print(v*10), w=4, z=3, y=2, x=1]

SymTable:

{v=3}

Out:

[0, 1, 2]

FileTable:


----------------------------------------------------------
ExeStack:

[print(v*10), w=4, z=3, y=2]

SymTable:

{v=3, x=1}

Out:

[0, 1, 2]

FileTable:


----------------------------------------------------------
ExeStack:

[print(v*10), w=4, z=3, y=2]

SymTable:

{v=3, x=1}

Out:

[0, 1, 2]

FileTable:


----------------------------------------------------------
ExeStack:

[print(v*10), w=4, z=3]

SymTable:

{v=3, x=1, y=2}

Out:

[0, 1, 2]

FileTable:


----------------------------------------------------------
ExeStack:

[print(v*10), w=4, z=3]

SymTable:

{v=3, x=1, y=2}

Out:

[0, 1, 2]

FileTable:


----------------------------------------------------------
ExeStack:

[print(v*10), w=4]

SymTable:

{v=3, x=1, y=2, z=3}

Out:

[0, 1, 2]

FileTable:


----------------------------------------------------------
ExeStack:

[print(v*10), w=4]

SymTable:

{v=3, x=1, y=2, z=3}

Out:

[0, 1, 2]

FileTable:


----------------------------------------------------------
ExeStack:

[print(v*10)]

SymTable:

{v=3, w=4, x=1, y=2, z=3}

Out:

[0, 1, 2]

FileTable:


----------------------------------------------------------
ExeStack:

[print(v*10)]

SymTable:

{v=3, w=4, x=1, y=2, z=3}

Out:

[0, 1, 2]

FileTable:


----------------------------------------------------------
ExeStack:

[]

SymTable:

{v=3, w=4, x=1, y=2, z=3}

Out:

[0, 1, 2, 30]

FileTable:


----------------------------------------------------------
ExeStack:

[(v=2;print(x))]

SymTable:

{}

Out:

[]

FileTable:


----------------------------------------------------------
ExeStack:

[print(x), v=2]

SymTable:

{}

Out:

[]

FileTable:


----------------------------------------------------------
ExeStack:

[print(x), v=2]

SymTable:

{}

Out:

[]

FileTable:


----------------------------------------------------------
ExeStack:

[print(x)]

SymTable:

{v=2}

Out:

[]

FileTable:


----------------------------------------------------------
ExeStack:

[print(x)]

SymTable:

{v=2}

Out:

[]

FileTable:


----------------------------------------------------------
ExeStack:

[]

SymTable:

{v=2}

Out:

[]

FileTable:


----------------------------------------------------------
