^\\TUDOR-LAPTOP\SCHOOL\OBJECT ORIENTED PROGRAMMING\LAB2\LAB2\LAB2.C
\\TUDOR-LAPTOP\SCHOOL\OBJECT ORIENTED PROGRAMMING\LAB2\LAB2\DEBUG\VC140.PDB
^\\TUDOR-LAPTOP\SCHOOL\OBJECT ORIENTED PROGRAMMING\LAB2\LAB2\STDAFX.CPP
\\TUDOR-LAPTOP\SCHOOL\OBJECT ORIENTED PROGRAMMING\LAB2\LAB2\DEBUG\VC140.PDB
^\\TUDOR-LAPTOP\SCHOOL\OBJECT ORIENTED PROGRAMMING\LAB2\LAB2\LAB2.C|\\TUDOR-LAPTOP\SCHOOL\OBJECT ORIENTED PROGRAMMING\LAB2\LAB2\STDAFX.CPP
^E:\PROGRAMARE\SCHOOL\OBJECT ORIENTED PROGRAMMING\LAB2\LAB2\LAB2.C
E:\PROGRAMARE\SCHOOL\OBJECT ORIENTED PROGRAMMING\LAB2\LAB2\DEBUG\VC140.PDB
E:\PROGRAMARE\SCHOOL\OBJECT ORIENTED PROGRAMMING\LAB2\LAB2\DEBUG\VC140.IDB
E:\PROGRAMARE\SCHOOL\OBJECT ORIENTED PROGRAMMING\LAB2\LAB2\DEBUG\LAB2.OBJ
^E:\PROGRAMARE\SCHOOL\OBJECT ORIENTED PROGRAMMING\LAB2\LAB2\STDAFX.CPP
E:\PROGRAMARE\SCHOOL\OBJECT ORIENTED PROGRAMMING\LAB2\LAB2\DEBUG\VC140.PDB
E:\PROGRAMARE\SCHOOL\OBJECT ORIENTED PROGRAMMING\LAB2\LAB2\DEBUG\VC140.IDB
E:\PROGRAMARE\SCHOOL\OBJECT ORIENTED PROGRAMMING\LAB2\LAB2\DEBUG\STDAFX.OBJ
