^E:\PROGRAMARE\SCHOOL\OBJECT ORIENTED PROGRAMMING\LAB2\LAB2\DEBUG\LAB2.OBJ|E:\PROGRAMARE\SCHOOL\OBJECT ORIENTED PROGRAMMING\LAB2\LAB2\DEBUG\STDAFX.OBJ
/OUT:"E:\PROGRAMARE\SCHOOL\OBJECT ORIENTED PROGRAMMING\LAB2\DEBUG\LAB2.EXE" /INCREMENTAL /NOLOGO KERNEL32.LIB USER32.LIB GDI32.LIB WINSPOOL.LIB COMDLG32.LIB ADVAPI32.LIB SHELL32.LIB OLE32.LIB OLEAUT32.LIB UUID.LIB ODBC32.LIB ODBCCP32.LIB /MANIFEST /MANIFESTUAC:"level='asInvoker' uiAccess='false'" /manifest:embed /Debug /PDB:"E:\PROGRAMARE\SCHOOL\OBJECT ORIENTED PROGRAMMING\LAB2\DEBUG\LAB2.PDB" /SUBSYSTEM:CONSOLE /TLBID:1 /DYNAMICBASE /NXCOMPAT /IMPLIB:"E:\PROGRAMARE\SCHOOL\OBJECT ORIENTED PROGRAMMING\LAB2\DEBUG\LAB2.LIB" /MACHINE:X86 DEBUG\LAB2.OBJDEBUG\STDAFX.OBJ
^\\TUDOR-LAPTOP\SCHOOL\OBJECT ORIENTED PROGRAMMING\LAB2\LAB2\DEBUG\LAB2.OBJ|\\TUDOR-LAPTOP\SCHOOL\OBJECT ORIENTED PROGRAMMING\LAB2\LAB2\DEBUG\STDAFX.OBJ
/OUT:"\\TUDOR-LAPTOP\SCHOOL\OBJECT ORIENTED PROGRAMMING\LAB2\DEBUG\LAB2.EXE" /INCREMENTAL /NOLOGO KERNEL32.LIB USER32.LIB GDI32.LIB WINSPOOL.LIB COMDLG32.LIB ADVAPI32.LIB SHELL32.LIB OLE32.LIB OLEAUT32.LIB UUID.LIB ODBC32.LIB ODBCCP32.LIB /MANIFEST /MANIFESTUAC:"level='asInvoker' uiAccess='false'" /manifest:embed /Debug /PDB:"\\TUDOR-LAPTOP\SCHOOL\OBJECT ORIENTED PROGRAMMING\LAB2\DEBUG\LAB2.PDB" /SUBSYSTEM:CONSOLE /TLBID:1 /DYNAMICBASE /NXCOMPAT /IMPLIB:"\\TUDOR-LAPTOP\SCHOOL\OBJECT ORIENTED PROGRAMMING\LAB2\DEBUG\LAB2.LIB" /MACHINE:X86 DEBUG\LAB2.OBJDEBUG\STDAFX.OBJ
