^E:\PROGRAMARE\SCHOOL\OBJECT ORIENTED PROGRAMMING\LAB11\LAB11\GENERATEDFILES\QRC_LAB11.CPP
E:\PROGRAMARE\SCHOOL\OBJECT ORIENTED PROGRAMMING\LAB11\LAB11\X64\DEBUG\VC140.PDB
E:\PROGRAMARE\SCHOOL\OBJECT ORIENTED PROGRAMMING\LAB11\LAB11\X64\DEBUG\QRC_LAB11.OBJ
^E:\PROGRAMARE\SCHOOL\OBJECT ORIENTED PROGRAMMING\LAB 8-9\LAB 8-9\CONTROLLER.CPP|E:\PROGRAMARE\SCHOOL\OBJECT ORIENTED PROGRAMMING\LAB 8-9\LAB 8-9\DOMAIN.CPP|E:\PROGRAMARE\SCHOOL\OBJECT ORIENTED PROGRAMMING\LAB 8-9\LAB 8-9\HTMLREPOSITORY.CPP|E:\PROGRAMARE\SCHOOL\OBJECT ORIENTED PROGRAMMING\LAB 8-9\LAB 8-9\MAIN.CPP|E:\PROGRAMARE\SCHOOL\OBJECT ORIENTED PROGRAMMING\LAB 8-9\LAB 8-9\REPOSITORY.CPP|E:\PROGRAMARE\SCHOOL\OBJECT ORIENTED PROGRAMMING\LAB 8-9\LAB 8-9\TEST.CPP|E:\PROGRAMARE\SCHOOL\OBJECT ORIENTED PROGRAMMING\LAB 8-9\LAB 8-9\UI.CPP
E:\PROGRAMARE\SCHOOL\OBJECT ORIENTED PROGRAMMING\LAB11\LAB11\X64\DEBUG\VC140.PDB
E:\PROGRAMARE\SCHOOL\OBJECT ORIENTED PROGRAMMING\LAB11\LAB11\X64\DEBUG\UI.OBJ
E:\PROGRAMARE\SCHOOL\OBJECT ORIENTED PROGRAMMING\LAB11\LAB11\X64\DEBUG\TEST.OBJ
E:\PROGRAMARE\SCHOOL\OBJECT ORIENTED PROGRAMMING\LAB11\LAB11\X64\DEBUG\REPOSITORY.OBJ
E:\PROGRAMARE\SCHOOL\OBJECT ORIENTED PROGRAMMING\LAB11\LAB11\X64\DEBUG\MAIN.OBJ
E:\PROGRAMARE\SCHOOL\OBJECT ORIENTED PROGRAMMING\LAB11\LAB11\X64\DEBUG\HTMLREPOSITORY.OBJ
E:\PROGRAMARE\SCHOOL\OBJECT ORIENTED PROGRAMMING\LAB11\LAB11\X64\DEBUG\DOMAIN.OBJ
E:\PROGRAMARE\SCHOOL\OBJECT ORIENTED PROGRAMMING\LAB11\LAB11\X64\DEBUG\CONTROLLER.OBJ
^E:\PROGRAMARE\SCHOOL\OBJECT ORIENTED PROGRAMMING\LAB 8-9\LAB 8-9\CONTROLLER.CPP
E:\PROGRAMARE\SCHOOL\OBJECT ORIENTED PROGRAMMING\LAB11\LAB11\X64\DEBUG\VC140.PDB
^E:\PROGRAMARE\SCHOOL\OBJECT ORIENTED PROGRAMMING\LAB 8-9\LAB 8-9\DOMAIN.CPP
E:\PROGRAMARE\SCHOOL\OBJECT ORIENTED PROGRAMMING\LAB11\LAB11\X64\DEBUG\VC140.PDB
^E:\PROGRAMARE\SCHOOL\OBJECT ORIENTED PROGRAMMING\LAB 8-9\LAB 8-9\HTMLREPOSITORY.CPP
E:\PROGRAMARE\SCHOOL\OBJECT ORIENTED PROGRAMMING\LAB11\LAB11\X64\DEBUG\VC140.PDB
^E:\PROGRAMARE\SCHOOL\OBJECT ORIENTED PROGRAMMING\LAB 8-9\LAB 8-9\REPOSITORY.CPP
E:\PROGRAMARE\SCHOOL\OBJECT ORIENTED PROGRAMMING\LAB11\LAB11\X64\DEBUG\VC140.PDB
^E:\PROGRAMARE\SCHOOL\OBJECT ORIENTED PROGRAMMING\LAB 8-9\LAB 8-9\TEST.CPP
E:\PROGRAMARE\SCHOOL\OBJECT ORIENTED PROGRAMMING\LAB11\LAB11\X64\DEBUG\VC140.PDB
^E:\PROGRAMARE\SCHOOL\OBJECT ORIENTED PROGRAMMING\LAB 8-9\LAB 8-9\UI.CPP
E:\PROGRAMARE\SCHOOL\OBJECT ORIENTED PROGRAMMING\LAB11\LAB11\X64\DEBUG\VC140.PDB
^E:\PROGRAMARE\SCHOOL\OBJECT ORIENTED PROGRAMMING\LAB 8-9\LAB 8-9\MAIN.CPP
E:\PROGRAMARE\SCHOOL\OBJECT ORIENTED PROGRAMMING\LAB11\LAB11\X64\DEBUG\VC140.PDB
E:\PROGRAMARE\SCHOOL\OBJECT ORIENTED PROGRAMMING\LAB11\LAB11\X64\DEBUG\MAIN.OBJ
^E:\PROGRAMARE\SCHOOL\OBJECT ORIENTED PROGRAMMING\LAB11\LAB11\CONTROLLER.CPP|E:\PROGRAMARE\SCHOOL\OBJECT ORIENTED PROGRAMMING\LAB11\LAB11\DOMAIN.CPP|E:\PROGRAMARE\SCHOOL\OBJECT ORIENTED PROGRAMMING\LAB11\LAB11\HTMLREPOSITORY.CPP|E:\PROGRAMARE\SCHOOL\OBJECT ORIENTED PROGRAMMING\LAB11\LAB11\MAIN.CPP|E:\PROGRAMARE\SCHOOL\OBJECT ORIENTED PROGRAMMING\LAB11\LAB11\REPOSITORY.CPP|E:\PROGRAMARE\SCHOOL\OBJECT ORIENTED PROGRAMMING\LAB11\LAB11\TEST.CPP|E:\PROGRAMARE\SCHOOL\OBJECT ORIENTED PROGRAMMING\LAB11\LAB11\UI.CPP
E:\PROGRAMARE\SCHOOL\OBJECT ORIENTED PROGRAMMING\LAB11\LAB11\X64\DEBUG\VC140.PDB
E:\PROGRAMARE\SCHOOL\OBJECT ORIENTED PROGRAMMING\LAB11\LAB11\X64\DEBUG\UI.OBJ
E:\PROGRAMARE\SCHOOL\OBJECT ORIENTED PROGRAMMING\LAB11\LAB11\X64\DEBUG\TEST.OBJ
E:\PROGRAMARE\SCHOOL\OBJECT ORIENTED PROGRAMMING\LAB11\LAB11\X64\DEBUG\REPOSITORY.OBJ
E:\PROGRAMARE\SCHOOL\OBJECT ORIENTED PROGRAMMING\LAB11\LAB11\X64\DEBUG\MAIN.OBJ
E:\PROGRAMARE\SCHOOL\OBJECT ORIENTED PROGRAMMING\LAB11\LAB11\X64\DEBUG\HTMLREPOSITORY.OBJ
E:\PROGRAMARE\SCHOOL\OBJECT ORIENTED PROGRAMMING\LAB11\LAB11\X64\DEBUG\DOMAIN.OBJ
E:\PROGRAMARE\SCHOOL\OBJECT ORIENTED PROGRAMMING\LAB11\LAB11\X64\DEBUG\CONTROLLER.OBJ
^E:\PROGRAMARE\SCHOOL\OBJECT ORIENTED PROGRAMMING\LAB11\LAB11\HTMLREPOSITORY.CPP
E:\PROGRAMARE\SCHOOL\OBJECT ORIENTED PROGRAMMING\LAB11\LAB11\X64\DEBUG\VC140.PDB
^E:\PROGRAMARE\SCHOOL\OBJECT ORIENTED PROGRAMMING\LAB11\LAB11\REPOSITORY.CPP
E:\PROGRAMARE\SCHOOL\OBJECT ORIENTED PROGRAMMING\LAB11\LAB11\X64\DEBUG\VC140.PDB
^E:\PROGRAMARE\SCHOOL\OBJECT ORIENTED PROGRAMMING\LAB11\LAB11\TEST.CPP
E:\PROGRAMARE\SCHOOL\OBJECT ORIENTED PROGRAMMING\LAB11\LAB11\X64\DEBUG\VC140.PDB
^E:\PROGRAMARE\SCHOOL\OBJECT ORIENTED PROGRAMMING\LAB11\LAB11\UI.CPP
E:\PROGRAMARE\SCHOOL\OBJECT ORIENTED PROGRAMMING\LAB11\LAB11\X64\DEBUG\VC140.PDB
^E:\PROGRAMARE\SCHOOL\OBJECT ORIENTED PROGRAMMING\LAB11\LAB11\DOMAIN.CPP|E:\PROGRAMARE\SCHOOL\OBJECT ORIENTED PROGRAMMING\LAB11\LAB11\MAIN.CPP
E:\PROGRAMARE\SCHOOL\OBJECT ORIENTED PROGRAMMING\LAB11\LAB11\X64\DEBUG\VC140.PDB
E:\PROGRAMARE\SCHOOL\OBJECT ORIENTED PROGRAMMING\LAB11\LAB11\X64\DEBUG\DOMAIN.OBJ
^E:\PROGRAMARE\SCHOOL\OBJECT ORIENTED PROGRAMMING\LAB11\LAB11\DOMAIN.CPP
E:\PROGRAMARE\SCHOOL\OBJECT ORIENTED PROGRAMMING\LAB11\LAB11\X64\DEBUG\DOMAIN.OBJ
^E:\PROGRAMARE\SCHOOL\OBJECT ORIENTED PROGRAMMING\LAB11\LAB11\LAB11.CPP|E:\PROGRAMARE\SCHOOL\OBJECT ORIENTED PROGRAMMING\LAB11\LAB11\MAIN.CPP
E:\PROGRAMARE\SCHOOL\OBJECT ORIENTED PROGRAMMING\LAB11\LAB11\X64\DEBUG\VC140.PDB
E:\PROGRAMARE\SCHOOL\OBJECT ORIENTED PROGRAMMING\LAB11\LAB11\X64\DEBUG\LAB11.OBJ
^E:\PROGRAMARE\SCHOOL\OBJECT ORIENTED PROGRAMMING\LAB11\LAB11\CONTROLLER.CPP|E:\PROGRAMARE\SCHOOL\OBJECT ORIENTED PROGRAMMING\LAB11\LAB11\GENERATEDFILES\DEBUG\MOC_LAB11.CPP|E:\PROGRAMARE\SCHOOL\OBJECT ORIENTED PROGRAMMING\LAB11\LAB11\LAB11.CPP|E:\PROGRAMARE\SCHOOL\OBJECT ORIENTED PROGRAMMING\LAB11\LAB11\MAIN.CPP
E:\PROGRAMARE\SCHOOL\OBJECT ORIENTED PROGRAMMING\LAB11\LAB11\X64\DEBUG\VC140.PDB
E:\PROGRAMARE\SCHOOL\OBJECT ORIENTED PROGRAMMING\LAB11\LAB11\X64\DEBUG\MAIN.OBJ
E:\PROGRAMARE\SCHOOL\OBJECT ORIENTED PROGRAMMING\LAB11\LAB11\X64\DEBUG\LAB11.OBJ
E:\PROGRAMARE\SCHOOL\OBJECT ORIENTED PROGRAMMING\LAB11\LAB11\X64\DEBUG\MOC_LAB11.OBJ
E:\PROGRAMARE\SCHOOL\OBJECT ORIENTED PROGRAMMING\LAB11\LAB11\X64\DEBUG\CONTROLLER.OBJ
^E:\PROGRAMARE\SCHOOL\OBJECT ORIENTED PROGRAMMING\LAB11\LAB11\CONTROLLER.CPP
E:\PROGRAMARE\SCHOOL\OBJECT ORIENTED PROGRAMMING\LAB11\LAB11\X64\DEBUG\VC140.PDB
^E:\PROGRAMARE\SCHOOL\OBJECT ORIENTED PROGRAMMING\LAB11\LAB11\GENERATEDFILES\DEBUG\MOC_LAB11.CPP|E:\PROGRAMARE\SCHOOL\OBJECT ORIENTED PROGRAMMING\LAB11\LAB11\LAB11.CPP|E:\PROGRAMARE\SCHOOL\OBJECT ORIENTED PROGRAMMING\LAB11\LAB11\MAIN.CPP
E:\PROGRAMARE\SCHOOL\OBJECT ORIENTED PROGRAMMING\LAB11\LAB11\X64\DEBUG\VC140.PDB
E:\PROGRAMARE\SCHOOL\OBJECT ORIENTED PROGRAMMING\LAB11\LAB11\X64\DEBUG\MAIN.OBJ
E:\PROGRAMARE\SCHOOL\OBJECT ORIENTED PROGRAMMING\LAB11\LAB11\X64\DEBUG\LAB11.OBJ
E:\PROGRAMARE\SCHOOL\OBJECT ORIENTED PROGRAMMING\LAB11\LAB11\X64\DEBUG\MOC_LAB11.OBJ
^E:\PROGRAMARE\SCHOOL\OBJECT ORIENTED PROGRAMMING\LAB11\LAB11\GENERATEDFILES\DEBUG\MOC_LAB11.CPP
E:\PROGRAMARE\SCHOOL\OBJECT ORIENTED PROGRAMMING\LAB11\LAB11\X64\DEBUG\VC140.PDB
^E:\PROGRAMARE\SCHOOL\OBJECT ORIENTED PROGRAMMING\LAB11\LAB11\LAB11.CPP
E:\PROGRAMARE\SCHOOL\OBJECT ORIENTED PROGRAMMING\LAB11\LAB11\X64\DEBUG\VC140.PDB
E:\PROGRAMARE\SCHOOL\OBJECT ORIENTED PROGRAMMING\LAB11\LAB11\X64\DEBUG\LAB11.OBJ
^E:\PROGRAMARE\SCHOOL\OBJECT ORIENTED PROGRAMMING\LAB11\LAB11\MAIN.CPP
E:\PROGRAMARE\SCHOOL\OBJECT ORIENTED PROGRAMMING\LAB11\LAB11\X64\DEBUG\VC140.PDB
E:\PROGRAMARE\SCHOOL\OBJECT ORIENTED PROGRAMMING\LAB11\LAB11\X64\DEBUG\MAIN.OBJ
