^E:\PROGRAMARE\SCHOOL\OBJECT ORIENTED PROGRAMMING\LAB11\LAB11\X64\DEBUG\CONTROLLER.OBJ|E:\PROGRAMARE\SCHOOL\OBJECT ORIENTED PROGRAMMING\LAB11\LAB11\X64\DEBUG\DOMAIN.OBJ|E:\PROGRAMARE\SCHOOL\OBJECT ORIENTED PROGRAMMING\LAB11\LAB11\X64\DEBUG\HTMLREPOSITORY.OBJ|E:\PROGRAMARE\SCHOOL\OBJECT ORIENTED PROGRAMMING\LAB11\LAB11\X64\DEBUG\LAB11.OBJ|E:\PROGRAMARE\SCHOOL\OBJECT ORIENTED PROGRAMMING\LAB11\LAB11\X64\DEBUG\MAIN.OBJ|E:\PROGRAMARE\SCHOOL\OBJECT ORIENTED PROGRAMMING\LAB11\LAB11\X64\DEBUG\MOC_LAB11.OBJ|E:\PROGRAMARE\SCHOOL\OBJECT ORIENTED PROGRAMMING\LAB11\LAB11\X64\DEBUG\QRC_LAB11.OBJ|E:\PROGRAMARE\SCHOOL\OBJECT ORIENTED PROGRAMMING\LAB11\LAB11\X64\DEBUG\REPOSITORY.OBJ|E:\PROGRAMARE\SCHOOL\OBJECT ORIENTED PROGRAMMING\LAB11\LAB11\X64\DEBUG\TEST.OBJ|E:\PROGRAMARE\SCHOOL\OBJECT ORIENTED PROGRAMMING\LAB11\LAB11\X64\DEBUG\UI.OBJ
E:\PROGRAMARE\SCHOOL\OBJECT ORIENTED PROGRAMMING\LAB11\X64\DEBUG\LAB11.ILK
E:\PROGRAMARE\SCHOOL\OBJECT ORIENTED PROGRAMMING\LAB11\X64\DEBUG\LAB11.EXE
E:\PROGRAMARE\SCHOOL\OBJECT ORIENTED PROGRAMMING\LAB11\X64\DEBUG\LAB11.PDB
