^\\TUDOR-LAPTOP\SCHOOL\OBJECT ORIENTED PROGRAMMING\LAB3-4\LAB3-4\DOMAIN.C|\\TUDOR-LAPTOP\SCHOOL\OBJECT ORIENTED PROGRAMMING\LAB3-4\LAB3-4\MAIN.C|\\TUDOR-LAPTOP\SCHOOL\OBJECT ORIENTED PROGRAMMING\LAB3-4\LAB3-4\REPOSITORY.C
^\\TUDOR-LAPTOP\SCHOOL\OBJECT ORIENTED PROGRAMMING\LAB3-4\LAB3-4\MAIN.C
\\TUDOR-LAPTOP\SCHOOL\OBJECT ORIENTED PROGRAMMING\LAB3-4\LAB3-4\DEBUG\VC140.PDB
^\\TUDOR-LAPTOP\SCHOOL\OBJECT ORIENTED PROGRAMMING\LAB3-4\LAB3-4\DOMAIN.C
\\TUDOR-LAPTOP\SCHOOL\OBJECT ORIENTED PROGRAMMING\LAB3-4\LAB3-4\DEBUG\VC140.PDB
^\\TUDOR-LAPTOP\SCHOOL\OBJECT ORIENTED PROGRAMMING\LAB3-4\LAB3-4\REPOSITORY.C
\\TUDOR-LAPTOP\SCHOOL\OBJECT ORIENTED PROGRAMMING\LAB3-4\LAB3-4\DEBUG\VC140.PDB
^\\TUDOR-LAPTOP\SCHOOL\OBJECT ORIENTED PROGRAMMING\LAB3-4\LAB3-4\STDAFX.CPP
\\TUDOR-LAPTOP\SCHOOL\OBJECT ORIENTED PROGRAMMING\LAB3-4\LAB3-4\DEBUG\VC140.PDB
^\\TUDOR-LAPTOP\SCHOOL\OBJECT ORIENTED PROGRAMMING\LAB3-4\LAB3-4\CONTROLLER.C|\\TUDOR-LAPTOP\SCHOOL\OBJECT ORIENTED PROGRAMMING\LAB3-4\LAB3-4\DOMAIN.C|\\TUDOR-LAPTOP\SCHOOL\OBJECT ORIENTED PROGRAMMING\LAB3-4\LAB3-4\MAIN.C|\\TUDOR-LAPTOP\SCHOOL\OBJECT ORIENTED PROGRAMMING\LAB3-4\LAB3-4\REPOSITORY.C|\\TUDOR-LAPTOP\SCHOOL\OBJECT ORIENTED PROGRAMMING\LAB3-4\LAB3-4\UI.C
^\\TUDOR-LAPTOP\SCHOOL\OBJECT ORIENTED PROGRAMMING\LAB3-4\LAB3-4\CONTROLLER.C
\\TUDOR-LAPTOP\SCHOOL\OBJECT ORIENTED PROGRAMMING\LAB3-4\LAB3-4\DEBUG\VC140.PDB
^\\TUDOR-LAPTOP\SCHOOL\OBJECT ORIENTED PROGRAMMING\LAB3-4\LAB3-4\UI.C
\\TUDOR-LAPTOP\SCHOOL\OBJECT ORIENTED PROGRAMMING\LAB3-4\LAB3-4\DEBUG\VC140.PDB
^\\TUDOR-LAPTOP\SCHOOL\OBJECT ORIENTED PROGRAMMING\LAB3-4\LAB3-4\MAIN.C|\\TUDOR-LAPTOP\SCHOOL\OBJECT ORIENTED PROGRAMMING\LAB3-4\LAB3-4\UI.C
^\\TUDOR-LAPTOP\SCHOOL\OBJECT ORIENTED PROGRAMMING\LAB3-4\LAB3-4\CONTROLLER.C|\\TUDOR-LAPTOP\SCHOOL\OBJECT ORIENTED PROGRAMMING\LAB3-4\LAB3-4\UI.C
^\\TUDOR-LAPTOP\SCHOOL\OBJECT ORIENTED PROGRAMMING\LAB3-4\LAB3-4\CONTROLLER.C|\\TUDOR-LAPTOP\SCHOOL\OBJECT ORIENTED PROGRAMMING\LAB3-4\LAB3-4\DOMAIN.C|\\TUDOR-LAPTOP\SCHOOL\OBJECT ORIENTED PROGRAMMING\LAB3-4\LAB3-4\DYNAMICARRAY.C|\\TUDOR-LAPTOP\SCHOOL\OBJECT ORIENTED PROGRAMMING\LAB3-4\LAB3-4\MAIN.C|\\TUDOR-LAPTOP\SCHOOL\OBJECT ORIENTED PROGRAMMING\LAB3-4\LAB3-4\REPOSITORY.C|\\TUDOR-LAPTOP\SCHOOL\OBJECT ORIENTED PROGRAMMING\LAB3-4\LAB3-4\UI.C
^\\TUDOR-LAPTOP\SCHOOL\OBJECT ORIENTED PROGRAMMING\LAB3-4\LAB3-4\DYNAMICARRAY.C
\\TUDOR-LAPTOP\SCHOOL\OBJECT ORIENTED PROGRAMMING\LAB3-4\LAB3-4\DEBUG\VC140.PDB
^\\TUDOR-LAPTOP\SCHOOL\OBJECT ORIENTED PROGRAMMING\LAB3-4\LAB3-4\CONTROLLER.C|\\TUDOR-LAPTOP\SCHOOL\OBJECT ORIENTED PROGRAMMING\LAB3-4\LAB3-4\DYNAMICARRAY.C|\\TUDOR-LAPTOP\SCHOOL\OBJECT ORIENTED PROGRAMMING\LAB3-4\LAB3-4\MAIN.C|\\TUDOR-LAPTOP\SCHOOL\OBJECT ORIENTED PROGRAMMING\LAB3-4\LAB3-4\REPOSITORY.C|\\TUDOR-LAPTOP\SCHOOL\OBJECT ORIENTED PROGRAMMING\LAB3-4\LAB3-4\UI.C
^\\TUDOR-LAPTOP\SCHOOL\OBJECT ORIENTED PROGRAMMING\LAB3-4\LAB3-4\CONTROLLER.C|\\TUDOR-LAPTOP\SCHOOL\OBJECT ORIENTED PROGRAMMING\LAB3-4\LAB3-4\MAIN.C
^\\TUDOR-LAPTOP\SCHOOL\OBJECT ORIENTED PROGRAMMING\LAB3-4\LAB3-4\CONTROLLER.C|\\TUDOR-LAPTOP\SCHOOL\OBJECT ORIENTED PROGRAMMING\LAB3-4\LAB3-4\MAIN.C|\\TUDOR-LAPTOP\SCHOOL\OBJECT ORIENTED PROGRAMMING\LAB3-4\LAB3-4\UI.C
^\\TUDOR-LAPTOP\SCHOOL\OBJECT ORIENTED PROGRAMMING\LAB3-4\LAB3-4\CONTROLLER.C|\\TUDOR-LAPTOP\SCHOOL\OBJECT ORIENTED PROGRAMMING\LAB3-4\LAB3-4\MAIN.C|\\TUDOR-LAPTOP\SCHOOL\OBJECT ORIENTED PROGRAMMING\LAB3-4\LAB3-4\REPOSITORY.C|\\TUDOR-LAPTOP\SCHOOL\OBJECT ORIENTED PROGRAMMING\LAB3-4\LAB3-4\UI.C
^\\TUDOR-LAPTOP\SCHOOL\OBJECT ORIENTED PROGRAMMING\LAB3-4\LAB3-4\CONTROLLER.C|\\TUDOR-LAPTOP\SCHOOL\OBJECT ORIENTED PROGRAMMING\LAB3-4\LAB3-4\DYNAMICARRAY.C|\\TUDOR-LAPTOP\SCHOOL\OBJECT ORIENTED PROGRAMMING\LAB3-4\LAB3-4\REPOSITORY.C|\\TUDOR-LAPTOP\SCHOOL\OBJECT ORIENTED PROGRAMMING\LAB3-4\LAB3-4\UI.C
^E:\PROGRAMARE\SCHOOL\OBJECT ORIENTED PROGRAMMING\LAB3-4\LAB3-4\CONTROLLER.C|E:\PROGRAMARE\SCHOOL\OBJECT ORIENTED PROGRAMMING\LAB3-4\LAB3-4\DOMAIN.C|E:\PROGRAMARE\SCHOOL\OBJECT ORIENTED PROGRAMMING\LAB3-4\LAB3-4\DYNAMICARRAY.C|E:\PROGRAMARE\SCHOOL\OBJECT ORIENTED PROGRAMMING\LAB3-4\LAB3-4\MAIN.C|E:\PROGRAMARE\SCHOOL\OBJECT ORIENTED PROGRAMMING\LAB3-4\LAB3-4\REPOSITORY.C|E:\PROGRAMARE\SCHOOL\OBJECT ORIENTED PROGRAMMING\LAB3-4\LAB3-4\UI.C
E:\PROGRAMARE\SCHOOL\OBJECT ORIENTED PROGRAMMING\LAB3-4\LAB3-4\DEBUG\VC140.PDB
E:\PROGRAMARE\SCHOOL\OBJECT ORIENTED PROGRAMMING\LAB3-4\LAB3-4\DEBUG\VC140.IDB
E:\PROGRAMARE\SCHOOL\OBJECT ORIENTED PROGRAMMING\LAB3-4\LAB3-4\DEBUG\UI.OBJ
E:\PROGRAMARE\SCHOOL\OBJECT ORIENTED PROGRAMMING\LAB3-4\LAB3-4\DEBUG\CONTROLLER.OBJ
E:\PROGRAMARE\SCHOOL\OBJECT ORIENTED PROGRAMMING\LAB3-4\LAB3-4\DEBUG\DOMAIN.OBJ
E:\PROGRAMARE\SCHOOL\OBJECT ORIENTED PROGRAMMING\LAB3-4\LAB3-4\DEBUG\DYNAMICARRAY.OBJ
E:\PROGRAMARE\SCHOOL\OBJECT ORIENTED PROGRAMMING\LAB3-4\LAB3-4\DEBUG\MAIN.OBJ
E:\PROGRAMARE\SCHOOL\OBJECT ORIENTED PROGRAMMING\LAB3-4\LAB3-4\DEBUG\REPOSITORY.OBJ
^E:\PROGRAMARE\SCHOOL\OBJECT ORIENTED PROGRAMMING\LAB3-4\LAB3-4\UI.C
E:\PROGRAMARE\SCHOOL\OBJECT ORIENTED PROGRAMMING\LAB3-4\LAB3-4\DEBUG\VC140.PDB
E:\PROGRAMARE\SCHOOL\OBJECT ORIENTED PROGRAMMING\LAB3-4\LAB3-4\DEBUG\VC140.IDB
E:\PROGRAMARE\SCHOOL\OBJECT ORIENTED PROGRAMMING\LAB3-4\LAB3-4\DEBUG\UI.OBJ
^E:\PROGRAMARE\SCHOOL\OBJECT ORIENTED PROGRAMMING\LAB3-4\LAB3-4\CONTROLLER.C
E:\PROGRAMARE\SCHOOL\OBJECT ORIENTED PROGRAMMING\LAB3-4\LAB3-4\DEBUG\VC140.PDB
E:\PROGRAMARE\SCHOOL\OBJECT ORIENTED PROGRAMMING\LAB3-4\LAB3-4\DEBUG\VC140.IDB
E:\PROGRAMARE\SCHOOL\OBJECT ORIENTED PROGRAMMING\LAB3-4\LAB3-4\DEBUG\CONTROLLER.OBJ
^E:\PROGRAMARE\SCHOOL\OBJECT ORIENTED PROGRAMMING\LAB3-4\LAB3-4\DOMAIN.C
E:\PROGRAMARE\SCHOOL\OBJECT ORIENTED PROGRAMMING\LAB3-4\LAB3-4\DEBUG\VC140.PDB
^E:\PROGRAMARE\SCHOOL\OBJECT ORIENTED PROGRAMMING\LAB3-4\LAB3-4\DYNAMICARRAY.C
E:\PROGRAMARE\SCHOOL\OBJECT ORIENTED PROGRAMMING\LAB3-4\LAB3-4\DEBUG\VC140.PDB
E:\PROGRAMARE\SCHOOL\OBJECT ORIENTED PROGRAMMING\LAB3-4\LAB3-4\DEBUG\VC140.IDB
E:\PROGRAMARE\SCHOOL\OBJECT ORIENTED PROGRAMMING\LAB3-4\LAB3-4\DEBUG\DYNAMICARRAY.OBJ
^E:\PROGRAMARE\SCHOOL\OBJECT ORIENTED PROGRAMMING\LAB3-4\LAB3-4\MAIN.C
E:\PROGRAMARE\SCHOOL\OBJECT ORIENTED PROGRAMMING\LAB3-4\LAB3-4\DEBUG\VC140.PDB
E:\PROGRAMARE\SCHOOL\OBJECT ORIENTED PROGRAMMING\LAB3-4\LAB3-4\DEBUG\VC140.IDB
E:\PROGRAMARE\SCHOOL\OBJECT ORIENTED PROGRAMMING\LAB3-4\LAB3-4\DEBUG\MAIN.OBJ
^E:\PROGRAMARE\SCHOOL\OBJECT ORIENTED PROGRAMMING\LAB3-4\LAB3-4\REPOSITORY.C
E:\PROGRAMARE\SCHOOL\OBJECT ORIENTED PROGRAMMING\LAB3-4\LAB3-4\DEBUG\VC140.PDB
E:\PROGRAMARE\SCHOOL\OBJECT ORIENTED PROGRAMMING\LAB3-4\LAB3-4\DEBUG\VC140.IDB
E:\PROGRAMARE\SCHOOL\OBJECT ORIENTED PROGRAMMING\LAB3-4\LAB3-4\DEBUG\REPOSITORY.OBJ
^E:\PROGRAMARE\SCHOOL\OBJECT ORIENTED PROGRAMMING\LAB3-4\LAB3-4\STDAFX.CPP
E:\PROGRAMARE\SCHOOL\OBJECT ORIENTED PROGRAMMING\LAB3-4\LAB3-4\DEBUG\VC140.PDB
E:\PROGRAMARE\SCHOOL\OBJECT ORIENTED PROGRAMMING\LAB3-4\LAB3-4\DEBUG\VC140.IDB
E:\PROGRAMARE\SCHOOL\OBJECT ORIENTED PROGRAMMING\LAB3-4\LAB3-4\DEBUG\STDAFX.OBJ
^E:\PROGRAMARE\SCHOOL\OBJECT ORIENTED PROGRAMMING\LAB3-4\LAB3-4\CONTROLLER.C|E:\PROGRAMARE\SCHOOL\OBJECT ORIENTED PROGRAMMING\LAB3-4\LAB3-4\MAIN.C|E:\PROGRAMARE\SCHOOL\OBJECT ORIENTED PROGRAMMING\LAB3-4\LAB3-4\REPOSITORY.C|E:\PROGRAMARE\SCHOOL\OBJECT ORIENTED PROGRAMMING\LAB3-4\LAB3-4\UI.C
E:\PROGRAMARE\SCHOOL\OBJECT ORIENTED PROGRAMMING\LAB3-4\LAB3-4\DEBUG\VC140.PDB
E:\PROGRAMARE\SCHOOL\OBJECT ORIENTED PROGRAMMING\LAB3-4\LAB3-4\DEBUG\VC140.IDB
E:\PROGRAMARE\SCHOOL\OBJECT ORIENTED PROGRAMMING\LAB3-4\LAB3-4\DEBUG\CONTROLLER.OBJ
E:\PROGRAMARE\SCHOOL\OBJECT ORIENTED PROGRAMMING\LAB3-4\LAB3-4\DEBUG\MAIN.OBJ
E:\PROGRAMARE\SCHOOL\OBJECT ORIENTED PROGRAMMING\LAB3-4\LAB3-4\DEBUG\REPOSITORY.OBJ
^E:\PROGRAMARE\SCHOOL\OBJECT ORIENTED PROGRAMMING\LAB3-4\LAB3-4\CONTROLLER.C|E:\PROGRAMARE\SCHOOL\OBJECT ORIENTED PROGRAMMING\LAB3-4\LAB3-4\DYNAMICARRAY.C|E:\PROGRAMARE\SCHOOL\OBJECT ORIENTED PROGRAMMING\LAB3-4\LAB3-4\MAIN.C|E:\PROGRAMARE\SCHOOL\OBJECT ORIENTED PROGRAMMING\LAB3-4\LAB3-4\REPOSITORY.C|E:\PROGRAMARE\SCHOOL\OBJECT ORIENTED PROGRAMMING\LAB3-4\LAB3-4\UI.C
E:\PROGRAMARE\SCHOOL\OBJECT ORIENTED PROGRAMMING\LAB3-4\LAB3-4\DEBUG\VC140.PDB
E:\PROGRAMARE\SCHOOL\OBJECT ORIENTED PROGRAMMING\LAB3-4\LAB3-4\DEBUG\VC140.IDB
E:\PROGRAMARE\SCHOOL\OBJECT ORIENTED PROGRAMMING\LAB3-4\LAB3-4\DEBUG\UI.OBJ
E:\PROGRAMARE\SCHOOL\OBJECT ORIENTED PROGRAMMING\LAB3-4\LAB3-4\DEBUG\CONTROLLER.OBJ
E:\PROGRAMARE\SCHOOL\OBJECT ORIENTED PROGRAMMING\LAB3-4\LAB3-4\DEBUG\MAIN.OBJ
E:\PROGRAMARE\SCHOOL\OBJECT ORIENTED PROGRAMMING\LAB3-4\LAB3-4\DEBUG\REPOSITORY.OBJ
^E:\PROGRAMARE\SCHOOL\OBJECT ORIENTED PROGRAMMING\LAB3-4\LAB3-4\CONTROLLER.C|E:\PROGRAMARE\SCHOOL\OBJECT ORIENTED PROGRAMMING\LAB3-4\LAB3-4\MAIN.C|E:\PROGRAMARE\SCHOOL\OBJECT ORIENTED PROGRAMMING\LAB3-4\LAB3-4\UI.C
E:\PROGRAMARE\SCHOOL\OBJECT ORIENTED PROGRAMMING\LAB3-4\LAB3-4\DEBUG\VC140.PDB
E:\PROGRAMARE\SCHOOL\OBJECT ORIENTED PROGRAMMING\LAB3-4\LAB3-4\DEBUG\VC140.IDB
E:\PROGRAMARE\SCHOOL\OBJECT ORIENTED PROGRAMMING\LAB3-4\LAB3-4\DEBUG\UI.OBJ
E:\PROGRAMARE\SCHOOL\OBJECT ORIENTED PROGRAMMING\LAB3-4\LAB3-4\DEBUG\CONTROLLER.OBJ
E:\PROGRAMARE\SCHOOL\OBJECT ORIENTED PROGRAMMING\LAB3-4\LAB3-4\DEBUG\MAIN.OBJ
^E:\PROGRAMARE\SCHOOL\OBJECT ORIENTED PROGRAMMING\LAB3-4\LAB3-4\CONTROLLER.C|E:\PROGRAMARE\SCHOOL\OBJECT ORIENTED PROGRAMMING\LAB3-4\LAB3-4\UI.C
E:\PROGRAMARE\SCHOOL\OBJECT ORIENTED PROGRAMMING\LAB3-4\LAB3-4\DEBUG\VC140.PDB
E:\PROGRAMARE\SCHOOL\OBJECT ORIENTED PROGRAMMING\LAB3-4\LAB3-4\DEBUG\VC140.IDB
E:\PROGRAMARE\SCHOOL\OBJECT ORIENTED PROGRAMMING\LAB3-4\LAB3-4\DEBUG\UI.OBJ
E:\PROGRAMARE\SCHOOL\OBJECT ORIENTED PROGRAMMING\LAB3-4\LAB3-4\DEBUG\CONTROLLER.OBJ
